#-----------------------------------------------------------
# Webtalk v2016.4 (64-bit)
# SW Build 1756540 on Mon Jan 23 19:11:19 MST 2017
# IP Build 1755317 on Mon Jan 23 20:30:07 MST 2017
# Start of session at: Thu Jun 22 21:07:03 2017
# Process ID: 4104
# Current directory: /mnt/Data-Partition/home/Documents/vivado_projects/top/top.sim/sim_1/behav
# Command line: wbtcv -mode batch -source /mnt/Data-Partition/home/Documents/vivado_projects/top/top.sim/sim_1/behav/xsim.dir/test_behav/webtalk/xsim_webtalk.tcl -notrace
# Log file: /mnt/Data-Partition/home/Documents/vivado_projects/top/top.sim/sim_1/behav/webtalk.log
# Journal file: /mnt/Data-Partition/home/Documents/vivado_projects/top/top.sim/sim_1/behav/webtalk.jou
#-----------------------------------------------------------
Sourcing tcl script '/opt/Xilinx/Vivado/2016.4/scripts/init.tcl'
ERROR: [Common 17-153] Param 'project.enableVHDL2008' does not exist
INFO: [Common 17-206] Exiting Webtalk at Thu Jun 22 21:07:03 2017...
