XXXXXXXXXXXXXXXXXXXXXXXXXXXXXXXXXXXXXXXXXXXXXXXXXXXXXXXXXXXXXXXXXXXXXXXXXXXXXXXX
X                                        .                                     X
X                                ....... .         ____                        X
X                        ======= .@@@@@. .         _.._......                  X
X                        =.....= .@@@@@. .         _.._                        X
X                        =.....= ....... .         _...                        X
X                        ==...== __...#######    .......            ########   X
X                        ==...==....._#.....#.....@@@@@.            #......#   X
X                     ...=............+.......@@..@@@@@.            #......#   X
X                        =............+.......@@........            ###+++##   X
X                        ===...==____.+.......@@.             _______ (....    X
X                           ..._      #######....  .    .     _....._ ((((.    X
X           .               _.._....(((((.    .    .    .  ..._....._ ((((.    X
X           .  .            _....@@.(((((. .  .  . .    .     __...__ ((((.    X
X           .  .            _....@@.(((((. .     . . (((((   (((...(  ((((.    X
X  (((((    .  .            _....@@.((((( .... ######(((((   ((((((((((...(    X
X  (((((  ========          _....... ......@@. #.....(((((   ((((((((((((((====X
X  (((((  =......=          =...=====.@@@..@@. #.....(((((   (((((((((((((....=X
X  (((((  =......=          =.........@@@..@@. #.....(((((   ((...  ((((((....=X
X  #...###=......=          =.........@@@..... ##+++#(((((   (((((  ((((((..===X
X  #.....#=......=          ===.......@@@..... ......        (((((  (((((((    X
X  #.....#===...==              =...=.....     .@@@@._______ ((((( ###...      X
X  #.....#   ...__              =...= . .      .@@@@......._.......+....#      X
X  ##+++##   _..._     .        _...  . .      .@@@@.........@@@@@.+....#      X
X   ........ _..._     .        _.._    ........@@@@.........@@@@@.+#####      X
X   .@@@@@@. _..._     .  ......_.._......@@.  ......_.............            X
X   .@@@@@@........    .        _.._......@@.        __...__     .             X
X   .........@@@@@.    .    ...._.._     .@@.   ....(((...(      .             X
X     =...==.@@@@@..#####   .@@._...     ........@@.(((((((      .             X
X     =......@@@@@......+.  .@@.......    ...((..@@.(((((((..... .             X
X     =......@@@@@......+....@@..@@@@.....(((((..@@.(((((((..    .             X
X   ..=............#####+.  .@@..@@@@..@@.(((((..@@.(((((((      .             X
X     ======       #######  .....@@<@..@@.(((.......    .                      X
X                  #.....+.(((  .@@@@..@@.  .....       .                      X
X             .....#.....+.(((  .......@@.  .@@@.______ .                      X
X                  ######+.(((.=...== ....  .@@@......_ .                      X
X                         ((((......=       .@@@......_ .                      X
X                         ((((......=       ......_____ .                      X
X                         ...(======= .  ((((((((((((((((                      X
X                        #+++         .  (((((((.((((((((                      X
X                        #..#      ______(((((((.((((((((                      X
X                        #..# ....._......((((((.((((((((                      X
X                        #..#      _......(((((((.....                         X
X                        #...      _____..(...(((                              X
X                       (((((((       .. (((((((                               X
X                       (((((((____   .. (((((((                               X
X                       ((((((...._   .. (((((((                               X
X                       ((((((...._   .. ...((((                               X
X                       (((.....___   . ((((  .                                X
X                        __...__      . ((((  .                                X
X                        _....._      . ((((  .                                X
X                        _....._....... ((((  .                                X
X                        _.......@@@@.  ((((                                   X
X                      .._.......@>@@.   .                                     X
X                        _...__..@@@@.   .                                     X
X                       ##+++#  ......   .                                     X
X                       #....#           .                                     X
X                       #....#           .                                     X
X                       ######           .                                     X
XXXXXXXXXXXXXXXXXXXXXXXXXXXXXXXXXXXXXXXXXXXXXXXXXXXXXXXXXXXXXXXXXXXXXXXXXXXXXXXX
