
*** Running vivado
    with args -log blk_mem_gen_0.vds -m64 -product Vivado -mode batch -messageDb vivado.pb -notrace -source blk_mem_gen_0.tcl

awk: cmd. line:1: warning: command line argument `/etc/upstream-release' is a directory: skipped

****** Vivado v2017.1 (64-bit)
  **** SW Build 1846317 on Fri Apr 14 18:54:47 MDT 2017
  **** IP Build 1846188 on Fri Apr 14 20:52:08 MDT 2017
    ** Copyright 1986-2017 Xilinx, Inc. All Rights Reserved.

source blk_mem_gen_0.tcl -notrace
awk: cmd. line:1: warning: command line argument `/etc/upstream-release' is a directory: skipped
Starting RTL Elaboration : Time (s): cpu = 00:00:12 ; elapsed = 00:00:13 . Memory (MB): peak = 1163.938 ; gain = 66.941 ; free physical = 149 ; free virtual = 2426
INFO: [Synth 8-638] synthesizing module 'blk_mem_gen_0' [/home/andreas/Desktop/computer_architecture/project/gitlab/rendVgaTmBoot/rendVgaTmBoot_ip/booting.srcs/sources_1/ip/blk_mem_gen_0/synth/blk_mem_gen_0.vhd:71]
INFO: [Synth 8-256] done synthesizing module 'blk_mem_gen_0' (11#1) [/home/andreas/Desktop/computer_architecture/project/gitlab/rendVgaTmBoot/rendVgaTmBoot_ip/booting.srcs/sources_1/ip/blk_mem_gen_0/synth/blk_mem_gen_0.vhd:71]
Finished RTL Elaboration : Time (s): cpu = 00:02:02 ; elapsed = 00:02:12 . Memory (MB): peak = 1364.336 ; gain = 267.340 ; free physical = 311 ; free virtual = 2431
Finished RTL Optimization Phase 1 : Time (s): cpu = 00:02:02 ; elapsed = 00:02:13 . Memory (MB): peak = 1364.336 ; gain = 267.340 ; free physical = 317 ; free virtual = 2437
INFO: [Device 21-403] Loading part xc7z010clg400-1
Constraint Validation Runtime : Time (s): cpu = 00:00:00.04 ; elapsed = 00:00:00.14 . Memory (MB): peak = 1503.148 ; gain = 0.000 ; free physical = 144 ; free virtual = 2223
Finished Constraint Validation : Time (s): cpu = 00:02:28 ; elapsed = 00:02:45 . Memory (MB): peak = 1503.148 ; gain = 406.152 ; free physical = 221 ; free virtual = 2302
Finished Loading Part and Timing Information : Time (s): cpu = 00:02:28 ; elapsed = 00:02:45 . Memory (MB): peak = 1503.148 ; gain = 406.152 ; free physical = 221 ; free virtual = 2302
Finished applying 'set_property' XDC Constraints : Time (s): cpu = 00:02:28 ; elapsed = 00:02:45 . Memory (MB): peak = 1503.148 ; gain = 406.152 ; free physical = 222 ; free virtual = 2304
Finished RTL Optimization Phase 2 : Time (s): cpu = 00:02:28 ; elapsed = 00:02:47 . Memory (MB): peak = 1503.148 ; gain = 406.152 ; free physical = 211 ; free virtual = 2295
Finished Cross Boundary and Area Optimization : Time (s): cpu = 00:02:29 ; elapsed = 00:02:47 . Memory (MB): peak = 1503.148 ; gain = 406.152 ; free physical = 199 ; free virtual = 2288
Finished Applying XDC Timing Constraints : Time (s): cpu = 00:02:47 ; elapsed = 00:03:08 . Memory (MB): peak = 1520.148 ; gain = 423.152 ; free physical = 121 ; free virtual = 2162
Finished Timing Optimization : Time (s): cpu = 00:02:47 ; elapsed = 00:03:08 . Memory (MB): peak = 1520.148 ; gain = 423.152 ; free physical = 120 ; free virtual = 2162
Finished Technology Mapping : Time (s): cpu = 00:02:47 ; elapsed = 00:03:08 . Memory (MB): peak = 1530.172 ; gain = 433.176 ; free physical = 132 ; free virtual = 2161
Finished IO Insertion : Time (s): cpu = 00:02:48 ; elapsed = 00:03:10 . Memory (MB): peak = 1530.172 ; gain = 433.176 ; free physical = 131 ; free virtual = 2161
Finished Renaming Generated Instances : Time (s): cpu = 00:02:48 ; elapsed = 00:03:10 . Memory (MB): peak = 1530.172 ; gain = 433.176 ; free physical = 131 ; free virtual = 2161
Finished Rebuilding User Hierarchy : Time (s): cpu = 00:02:48 ; elapsed = 00:03:10 . Memory (MB): peak = 1530.172 ; gain = 433.176 ; free physical = 131 ; free virtual = 2161
Finished Renaming Generated Ports : Time (s): cpu = 00:02:48 ; elapsed = 00:03:10 . Memory (MB): peak = 1530.172 ; gain = 433.176 ; free physical = 131 ; free virtual = 2161
Finished Handling Custom Attributes : Time (s): cpu = 00:02:48 ; elapsed = 00:03:10 . Memory (MB): peak = 1530.172 ; gain = 433.176 ; free physical = 131 ; free virtual = 2161
Finished Renaming Generated Nets : Time (s): cpu = 00:02:48 ; elapsed = 00:03:10 . Memory (MB): peak = 1530.172 ; gain = 433.176 ; free physical = 131 ; free virtual = 2161

Report Cell Usage: 
+------+-----------+------+
|      |Cell       |Count |
+------+-----------+------+
|1     |RAMB36E1   |     2|
|2     |RAMB36E1_1 |     4|
+------+-----------+------+
Finished Writing Synthesis Report : Time (s): cpu = 00:02:48 ; elapsed = 00:03:10 . Memory (MB): peak = 1530.172 ; gain = 433.176 ; free physical = 131 ; free virtual = 2161
synth_design: Time (s): cpu = 00:03:01 ; elapsed = 00:03:24 . Memory (MB): peak = 1535.172 ; gain = 450.816 ; free physical = 154 ; free virtual = 2188
