
*** Running vivado
    with args -log design_1_rendVgaTmBoot_0_2.vds -m64 -product Vivado -mode batch -messageDb vivado.pb -notrace -source design_1_rendVgaTmBoot_0_2.tcl

awk: cmd. line:1: warning: command line argument `/etc/upstream-release' is a directory: skipped

****** Vivado v2017.1 (64-bit)
  **** SW Build 1846317 on Fri Apr 14 18:54:47 MDT 2017
  **** IP Build 1846188 on Fri Apr 14 20:52:08 MDT 2017
    ** Copyright 1986-2017 Xilinx, Inc. All Rights Reserved.

source design_1_rendVgaTmBoot_0_2.tcl -notrace
Command: synth_design -top design_1_rendVgaTmBoot_0_2 -part xc7z010clg400-1 -mode out_of_context
Starting synth_design
Attempting to get a license for feature 'Synthesis' and/or device 'xc7z010-clg400'
INFO: [Common 17-349] Got license for feature 'Synthesis' and/or device 'xc7z010-clg400'
INFO: Launching helper process for spawning children vivado processes
INFO: Helper process launched with PID 14462 
awk: cmd. line:1: warning: command line argument `/etc/upstream-release' is a directory: skipped
---------------------------------------------------------------------------------
Starting RTL Elaboration : Time (s): cpu = 00:00:11 ; elapsed = 00:00:12 . Memory (MB): peak = 1163.934 ; gain = 66.996 ; free physical = 437 ; free virtual = 3752
---------------------------------------------------------------------------------
INFO: [Synth 8-638] synthesizing module 'design_1_rendVgaTmBoot_0_2' [/home/andreas/Desktop/computer_architecture/project/gitlab/TOP/TOP_v3/TOP_v3.srcs/sources_1/bd/design_1/ip/design_1_rendVgaTmBoot_0_2/synth/design_1_rendVgaTmBoot_0_2.vhd:78]
	Parameter MAP_ID_NUM_BITS bound to: 8 - type: integer 
	Parameter PACKET_IN_NUM_BITS bound to: 32 - type: integer 
INFO: [Synth 8-3491] module 'top' declared at '/home/andreas/Desktop/computer_architecture/project/gitlab/TOP/TOP_v3/TOP_v3.srcs/sources_1/bd/design_1/ipshared/da0b/booting.srcs/sources_1/new/top.vhd:34' bound to instance 'U0' of component 'top' [/home/andreas/Desktop/computer_architecture/project/gitlab/TOP/TOP_v3/TOP_v3.srcs/sources_1/bd/design_1/ip/design_1_rendVgaTmBoot_0_2/synth/design_1_rendVgaTmBoot_0_2.vhd:114]
INFO: [Synth 8-638] synthesizing module 'top' [/home/andreas/Desktop/computer_architecture/project/gitlab/TOP/TOP_v3/TOP_v3.srcs/sources_1/bd/design_1/ipshared/da0b/booting.srcs/sources_1/new/top.vhd:71]
	Parameter MAP_ID_NUM_BITS bound to: 8 - type: integer 
	Parameter PACKET_IN_NUM_BITS bound to: 32 - type: integer 
INFO: [Synth 8-3491] module 'renderer' declared at '/home/andreas/Desktop/computer_architecture/project/gitlab/TOP/TOP_v3/TOP_v3.srcs/sources_1/bd/design_1/ipshared/da0b/booting.srcs/sources_1/new/renderer.vhd:19' bound to instance 'rend' of component 'renderer' [/home/andreas/Desktop/computer_architecture/project/gitlab/TOP/TOP_v3/TOP_v3.srcs/sources_1/bd/design_1/ipshared/da0b/booting.srcs/sources_1/new/top.vhd:206]
INFO: [Synth 8-638] synthesizing module 'renderer' [/home/andreas/Desktop/computer_architecture/project/gitlab/TOP/TOP_v3/TOP_v3.srcs/sources_1/bd/design_1/ipshared/da0b/booting.srcs/sources_1/new/renderer.vhd:36]
INFO: [Synth 8-5534] Detected attribute (* ram_style = "distributed" *) [/home/andreas/Desktop/computer_architecture/project/gitlab/TOP/TOP_v3/TOP_v3.srcs/sources_1/bd/design_1/ipshared/da0b/booting.srcs/sources_1/new/renderer.vhd:42]
INFO: [Synth 8-5534] Detected attribute (* ram_style = "block" *) [/home/andreas/Desktop/computer_architecture/project/gitlab/TOP/TOP_v3/TOP_v3.srcs/sources_1/bd/design_1/ipshared/da0b/booting.srcs/sources_1/new/renderer.vhd:44]
WARNING: [Synth 8-614] signal 'fetchfinish' is read in the process but is not in the sensitivity list [/home/andreas/Desktop/computer_architecture/project/gitlab/TOP/TOP_v3/TOP_v3.srcs/sources_1/bd/design_1/ipshared/da0b/booting.srcs/sources_1/new/renderer.vhd:85]
WARNING: [Synth 8-614] signal 'output_enable' is read in the process but is not in the sensitivity list [/home/andreas/Desktop/computer_architecture/project/gitlab/TOP/TOP_v3/TOP_v3.srcs/sources_1/bd/design_1/ipshared/da0b/booting.srcs/sources_1/new/renderer.vhd:149]
WARNING: [Synth 8-614] signal 'fetchfinish' is read in the process but is not in the sensitivity list [/home/andreas/Desktop/computer_architecture/project/gitlab/TOP/TOP_v3/TOP_v3.srcs/sources_1/bd/design_1/ipshared/da0b/booting.srcs/sources_1/new/renderer.vhd:149]
WARNING: [Synth 8-6014] Unused sequential element idsprite_reg was removed.  [/home/andreas/Desktop/computer_architecture/project/gitlab/TOP/TOP_v3/TOP_v3.srcs/sources_1/bd/design_1/ipshared/da0b/booting.srcs/sources_1/new/renderer.vhd:164]
WARNING: [Synth 8-6014] Unused sequential element sprite_x_reg was removed.  [/home/andreas/Desktop/computer_architecture/project/gitlab/TOP/TOP_v3/TOP_v3.srcs/sources_1/bd/design_1/ipshared/da0b/booting.srcs/sources_1/new/renderer.vhd:166]
WARNING: [Synth 8-6014] Unused sequential element sprite_y_reg was removed.  [/home/andreas/Desktop/computer_architecture/project/gitlab/TOP/TOP_v3/TOP_v3.srcs/sources_1/bd/design_1/ipshared/da0b/booting.srcs/sources_1/new/renderer.vhd:167]
WARNING: [Synth 8-6014] Unused sequential element pixel_reg was removed.  [/home/andreas/Desktop/computer_architecture/project/gitlab/TOP/TOP_v3/TOP_v3.srcs/sources_1/bd/design_1/ipshared/da0b/booting.srcs/sources_1/new/renderer.vhd:172]
INFO: [Synth 8-256] done synthesizing module 'renderer' (1#1) [/home/andreas/Desktop/computer_architecture/project/gitlab/TOP/TOP_v3/TOP_v3.srcs/sources_1/bd/design_1/ipshared/da0b/booting.srcs/sources_1/new/renderer.vhd:36]
WARNING: [Synth 8-549] port width mismatch for port 'addr_X': port width = 7, actual width = 32 [/home/andreas/Desktop/computer_architecture/project/gitlab/TOP/TOP_v3/TOP_v3.srcs/sources_1/bd/design_1/ipshared/da0b/booting.srcs/sources_1/new/top.vhd:208]
WARNING: [Synth 8-549] port width mismatch for port 'addr_Y': port width = 6, actual width = 32 [/home/andreas/Desktop/computer_architecture/project/gitlab/TOP/TOP_v3/TOP_v3.srcs/sources_1/bd/design_1/ipshared/da0b/booting.srcs/sources_1/new/top.vhd:208]
INFO: [Synth 8-3491] module 'vga_connector' declared at '/home/andreas/Desktop/computer_architecture/project/gitlab/TOP/TOP_v3/TOP_v3.srcs/sources_1/bd/design_1/ipshared/da0b/booting.srcs/sources_1/new/vga_connector.vhd:12' bound to instance 'vga' of component 'vga_connector' [/home/andreas/Desktop/computer_architecture/project/gitlab/TOP/TOP_v3/TOP_v3.srcs/sources_1/bd/design_1/ipshared/da0b/booting.srcs/sources_1/new/top.vhd:211]
INFO: [Synth 8-638] synthesizing module 'vga_connector' [/home/andreas/Desktop/computer_architecture/project/gitlab/TOP/TOP_v3/TOP_v3.srcs/sources_1/bd/design_1/ipshared/da0b/booting.srcs/sources_1/new/vga_connector.vhd:25]
INFO: [Synth 8-256] done synthesizing module 'vga_connector' (2#1) [/home/andreas/Desktop/computer_architecture/project/gitlab/TOP/TOP_v3/TOP_v3.srcs/sources_1/bd/design_1/ipshared/da0b/booting.srcs/sources_1/new/vga_connector.vhd:25]
WARNING: [Synth 8-549] port width mismatch for port 'h_cnt': port width = 10, actual width = 31 [/home/andreas/Desktop/computer_architecture/project/gitlab/TOP/TOP_v3/TOP_v3.srcs/sources_1/bd/design_1/ipshared/da0b/booting.srcs/sources_1/new/top.vhd:124]
WARNING: [Synth 8-549] port width mismatch for port 'v_cnt': port width = 10, actual width = 31 [/home/andreas/Desktop/computer_architecture/project/gitlab/TOP/TOP_v3/TOP_v3.srcs/sources_1/bd/design_1/ipshared/da0b/booting.srcs/sources_1/new/top.vhd:125]
WARNING: [Synth 8-549] port width mismatch for port 'h_cnt': port width = 31, actual width = 32 [/home/andreas/Desktop/computer_architecture/project/gitlab/TOP/TOP_v3/TOP_v3.srcs/sources_1/bd/design_1/ipshared/da0b/booting.srcs/sources_1/new/top.vhd:211]
WARNING: [Synth 8-549] port width mismatch for port 'v_cnt': port width = 31, actual width = 32 [/home/andreas/Desktop/computer_architecture/project/gitlab/TOP/TOP_v3/TOP_v3.srcs/sources_1/bd/design_1/ipshared/da0b/booting.srcs/sources_1/new/top.vhd:211]
INFO: [Synth 8-3491] module 'tile_manager' declared at '/home/andreas/Desktop/computer_architecture/project/gitlab/TOP/TOP_v3/TOP_v3.srcs/sources_1/bd/design_1/ipshared/da0b/booting.srcs/sources_1/new/tile_manager.vhd:16' bound to instance 'tm' of component 'tile_manager' [/home/andreas/Desktop/computer_architecture/project/gitlab/TOP/TOP_v3/TOP_v3.srcs/sources_1/bd/design_1/ipshared/da0b/booting.srcs/sources_1/new/top.vhd:215]
INFO: [Synth 8-638] synthesizing module 'tile_manager' [/home/andreas/Desktop/computer_architecture/project/gitlab/TOP/TOP_v3/TOP_v3.srcs/sources_1/bd/design_1/ipshared/da0b/booting.srcs/sources_1/new/tile_manager.vhd:26]
INFO: [Synth 8-5534] Detected attribute (* ram_style = "block" *) [/home/andreas/Desktop/computer_architecture/project/gitlab/TOP/TOP_v3/TOP_v3.srcs/sources_1/bd/design_1/ipshared/da0b/booting.srcs/sources_1/new/tile_manager.vhd:34]
WARNING: [Synth 8-614] signal 'we' is read in the process but is not in the sensitivity list [/home/andreas/Desktop/computer_architecture/project/gitlab/TOP/TOP_v3/TOP_v3.srcs/sources_1/bd/design_1/ipshared/da0b/booting.srcs/sources_1/new/tile_manager.vhd:47]
INFO: [Synth 8-256] done synthesizing module 'tile_manager' (3#1) [/home/andreas/Desktop/computer_architecture/project/gitlab/TOP/TOP_v3/TOP_v3.srcs/sources_1/bd/design_1/ipshared/da0b/booting.srcs/sources_1/new/tile_manager.vhd:26]
	Parameter MAP_ID_NUM_BITS bound to: 8 - type: integer 
	Parameter PACKET_IN_NUM_BITS bound to: 32 - type: integer 
	Parameter MAPS_NUM bound to: 128 - type: integer 
	Parameter MAP_NUM_TILES_X bound to: 80 - type: integer 
	Parameter MAP_NUM_TILES_Y bound to: 60 - type: integer 
	Parameter TILE_NUM_BITS bound to: 19 - type: integer 
	Parameter SPRITES_NUM bound to: 128 - type: integer 
	Parameter SPRITE_NUM_PIXELS bound to: 256 - type: integer 
	Parameter PIXEL_NUM_BITS bound to: 6 - type: integer 
INFO: [Synth 8-3491] module 'booting' declared at '/home/andreas/Desktop/computer_architecture/project/gitlab/TOP/TOP_v3/TOP_v3.srcs/sources_1/bd/design_1/ipshared/da0b/booting.srcs/sources_1/imports/initializationProcess/booting.vhd:34' bound to instance 'boot' of component 'booting' [/home/andreas/Desktop/computer_architecture/project/gitlab/TOP/TOP_v3/TOP_v3.srcs/sources_1/bd/design_1/ipshared/da0b/booting.srcs/sources_1/new/top.vhd:218]
INFO: [Synth 8-638] synthesizing module 'booting' [/home/andreas/Desktop/computer_architecture/project/gitlab/TOP/TOP_v3/TOP_v3.srcs/sources_1/bd/design_1/ipshared/da0b/booting.srcs/sources_1/imports/initializationProcess/booting.vhd:76]
	Parameter MAP_ID_NUM_BITS bound to: 8 - type: integer 
	Parameter PACKET_IN_NUM_BITS bound to: 32 - type: integer 
	Parameter MAPS_NUM bound to: 128 - type: integer 
	Parameter MAP_NUM_TILES_X bound to: 80 - type: integer 
	Parameter MAP_NUM_TILES_Y bound to: 60 - type: integer 
	Parameter TILE_NUM_BITS bound to: 19 - type: integer 
	Parameter SPRITES_NUM bound to: 128 - type: integer 
	Parameter SPRITE_NUM_PIXELS bound to: 256 - type: integer 
	Parameter PIXEL_NUM_BITS bound to: 6 - type: integer 
WARNING: [Synth 8-6014] Unused sequential element pnt_rx_reg was removed.  [/home/andreas/Desktop/computer_architecture/project/gitlab/TOP/TOP_v3/TOP_v3.srcs/sources_1/bd/design_1/ipshared/da0b/booting.srcs/sources_1/imports/initializationProcess/booting.vhd:131]
INFO: [Synth 8-256] done synthesizing module 'booting' (4#1) [/home/andreas/Desktop/computer_architecture/project/gitlab/TOP/TOP_v3/TOP_v3.srcs/sources_1/bd/design_1/ipshared/da0b/booting.srcs/sources_1/imports/initializationProcess/booting.vhd:76]
WARNING: [Synth 8-549] port width mismatch for port 'tmp_rand': port width = 7, actual width = 32 [/home/andreas/Desktop/computer_architecture/project/gitlab/TOP/TOP_v3/TOP_v3.srcs/sources_1/bd/design_1/ipshared/da0b/booting.srcs/sources_1/new/top.vhd:235]
WARNING: [Synth 8-549] port width mismatch for port 'Xmap': port width = 7, actual width = 32 [/home/andreas/Desktop/computer_architecture/project/gitlab/TOP/TOP_v3/TOP_v3.srcs/sources_1/bd/design_1/ipshared/da0b/booting.srcs/sources_1/new/top.vhd:237]
WARNING: [Synth 8-549] port width mismatch for port 'Ymap': port width = 6, actual width = 32 [/home/andreas/Desktop/computer_architecture/project/gitlab/TOP/TOP_v3/TOP_v3.srcs/sources_1/bd/design_1/ipshared/da0b/booting.srcs/sources_1/new/top.vhd:238]
WARNING: [Synth 8-614] signal 'sw' is read in the process but is not in the sensitivity list [/home/andreas/Desktop/computer_architecture/project/gitlab/TOP/TOP_v3/TOP_v3.srcs/sources_1/bd/design_1/ipshared/da0b/booting.srcs/sources_1/new/top.vhd:261]
WARNING: [Synth 8-614] signal 'tmprand' is read in the process but is not in the sensitivity list [/home/andreas/Desktop/computer_architecture/project/gitlab/TOP/TOP_v3/TOP_v3.srcs/sources_1/bd/design_1/ipshared/da0b/booting.srcs/sources_1/new/top.vhd:261]
INFO: [Synth 8-256] done synthesizing module 'top' (5#1) [/home/andreas/Desktop/computer_architecture/project/gitlab/TOP/TOP_v3/TOP_v3.srcs/sources_1/bd/design_1/ipshared/da0b/booting.srcs/sources_1/new/top.vhd:71]
INFO: [Synth 8-256] done synthesizing module 'design_1_rendVgaTmBoot_0_2' (6#1) [/home/andreas/Desktop/computer_architecture/project/gitlab/TOP/TOP_v3/TOP_v3.srcs/sources_1/bd/design_1/ip/design_1_rendVgaTmBoot_0_2/synth/design_1_rendVgaTmBoot_0_2.vhd:78]
WARNING: [Synth 8-3331] design booting has unconnected port packet_in[31]
WARNING: [Synth 8-3331] design booting has unconnected port packet_in[30]
WARNING: [Synth 8-3331] design booting has unconnected port packet_in[29]
WARNING: [Synth 8-3331] design booting has unconnected port packet_in[28]
WARNING: [Synth 8-3331] design booting has unconnected port packet_in[27]
WARNING: [Synth 8-3331] design booting has unconnected port packet_in[26]
WARNING: [Synth 8-3331] design booting has unconnected port packet_in[25]
WARNING: [Synth 8-3331] design booting has unconnected port packet_in[24]
WARNING: [Synth 8-3331] design booting has unconnected port packet_in[23]
WARNING: [Synth 8-3331] design booting has unconnected port packet_in[22]
WARNING: [Synth 8-3331] design booting has unconnected port packet_in[21]
WARNING: [Synth 8-3331] design booting has unconnected port packet_in[20]
WARNING: [Synth 8-3331] design booting has unconnected port packet_in[19]
WARNING: [Synth 8-3331] design top has unconnected port sw[0]
---------------------------------------------------------------------------------
Finished RTL Elaboration : Time (s): cpu = 00:00:13 ; elapsed = 00:00:16 . Memory (MB): peak = 1212.434 ; gain = 115.496 ; free physical = 441 ; free virtual = 3757
---------------------------------------------------------------------------------

Report Check Netlist: 
+------+------------------+-------+---------+-------+------------------+
|      |Item              |Errors |Warnings |Status |Description       |
+------+------------------+-------+---------+-------+------------------+
|1     |multi_driven_nets |      0|        0|Passed |Multi driven nets |
+------+------------------+-------+---------+-------+------------------+
---------------------------------------------------------------------------------
Finished RTL Optimization Phase 1 : Time (s): cpu = 00:00:14 ; elapsed = 00:00:16 . Memory (MB): peak = 1212.434 ; gain = 115.496 ; free physical = 443 ; free virtual = 3759
---------------------------------------------------------------------------------
INFO: [Device 21-403] Loading part xc7z010clg400-1
INFO: [Project 1-570] Preparing netlist for logic optimization

Processing XDC Constraints
Initializing timing engine
Completed Processing XDC Constraints

INFO: [Project 1-111] Unisim Transformation Summary:
No Unisim elements were transformed.

Constraint Validation Runtime : Time (s): cpu = 00:00:00.10 ; elapsed = 00:00:00.12 . Memory (MB): peak = 1538.855 ; gain = 1.000 ; free physical = 206 ; free virtual = 3518
---------------------------------------------------------------------------------
Finished Constraint Validation : Time (s): cpu = 00:00:37 ; elapsed = 00:00:44 . Memory (MB): peak = 1538.855 ; gain = 441.918 ; free physical = 281 ; free virtual = 3598
---------------------------------------------------------------------------------
---------------------------------------------------------------------------------
Start Loading Part and Timing Information
---------------------------------------------------------------------------------
Loading part: xc7z010clg400-1
---------------------------------------------------------------------------------
Finished Loading Part and Timing Information : Time (s): cpu = 00:00:37 ; elapsed = 00:00:44 . Memory (MB): peak = 1538.855 ; gain = 441.918 ; free physical = 281 ; free virtual = 3598
---------------------------------------------------------------------------------
---------------------------------------------------------------------------------
Start Applying 'set_property' XDC Constraints
---------------------------------------------------------------------------------
---------------------------------------------------------------------------------
Finished applying 'set_property' XDC Constraints : Time (s): cpu = 00:00:37 ; elapsed = 00:00:44 . Memory (MB): peak = 1538.855 ; gain = 441.918 ; free physical = 282 ; free virtual = 3599
---------------------------------------------------------------------------------
INFO: [Synth 8-5546] ROM "tile_row_write_counter" won't be mapped to RAM because it is too sparse
INFO: [Synth 8-5546] ROM "boundary_X" won't be mapped to RAM because it is too sparse
WARNING: [Synth 8-6014] Unused sequential element ind_reg was removed.  [/home/andreas/Desktop/computer_architecture/project/gitlab/TOP/TOP_v3/TOP_v3.srcs/sources_1/bd/design_1/ipshared/da0b/booting.srcs/sources_1/new/renderer.vhd:75]
WARNING: [Synth 8-6014] Unused sequential element tile_column_write_counter_reg was removed.  [/home/andreas/Desktop/computer_architecture/project/gitlab/TOP/TOP_v3/TOP_v3.srcs/sources_1/bd/design_1/ipshared/da0b/booting.srcs/sources_1/new/renderer.vhd:92]
WARNING: [Synth 8-6014] Unused sequential element x_reg was removed.  [/home/andreas/Desktop/computer_architecture/project/gitlab/TOP/TOP_v3/TOP_v3.srcs/sources_1/bd/design_1/ipshared/da0b/booting.srcs/sources_1/new/vga_connector.vhd:42]
INFO: [Synth 8-802] inferred FSM for state register 'state_reg' in module 'booting'
WARNING: [Synth 8-6014] Unused sequential element state_reg was removed.  [/home/andreas/Desktop/computer_architecture/project/gitlab/TOP/TOP_v3/TOP_v3.srcs/sources_1/bd/design_1/ipshared/da0b/booting.srcs/sources_1/imports/initializationProcess/booting.vhd:100]
INFO: [Synth 8-5546] ROM "ch_tx0" won't be mapped to RAM because it is too sparse
INFO: [Synth 8-5546] ROM "state" won't be mapped to RAM because it is too sparse
INFO: [Synth 8-5546] ROM "tmp_rand" won't be mapped to RAM because it is too sparse
INFO: [Synth 8-5544] ROM "led0" won't be mapped to Block RAM because address size (4) smaller than threshold (5)
INFO: [Synth 8-5544] ROM "led2" won't be mapped to Block RAM because address size (4) smaller than threshold (5)
INFO: [Synth 8-5544] ROM "transm" won't be mapped to Block RAM because address size (4) smaller than threshold (5)
INFO: [Synth 8-5544] ROM "rand" won't be mapped to Block RAM because address size (4) smaller than threshold (5)
INFO: [Synth 8-5544] ROM "data_type" won't be mapped to Block RAM because address size (4) smaller than threshold (5)
WARNING: [Synth 8-6014] Unused sequential element state_reg was removed.  [/home/andreas/Desktop/computer_architecture/project/gitlab/TOP/TOP_v3/TOP_v3.srcs/sources_1/bd/design_1/ipshared/da0b/booting.srcs/sources_1/imports/initializationProcess/booting.vhd:100]
WARNING: [Synth 8-6014] Unused sequential element state_reg was removed.  [/home/andreas/Desktop/computer_architecture/project/gitlab/TOP/TOP_v3/TOP_v3.srcs/sources_1/bd/design_1/ipshared/da0b/booting.srcs/sources_1/imports/initializationProcess/booting.vhd:100]
---------------------------------------------------------------------------------------------------
                   State |                     New Encoding |                Previous Encoding 
---------------------------------------------------------------------------------------------------
          connecting_dbg |                              000 |                             1000
               connected |                              001 |                             0001
      sprites_trnsf_init |                              010 |                             0010
           sprites_trnsf |                              011 |                             0011
                   sleep |                              100 |                             0111
          map_trnsf_init |                              101 |                             0100
               map_trnsf |                              110 |                             0101
                    idle |                              111 |                             0110
---------------------------------------------------------------------------------------------------
INFO: [Synth 8-3354] encoded FSM with state register 'state_reg' using encoding 'sequential' in module 'booting'
WARNING: [Synth 8-6014] Unused sequential element state_reg was removed.  [/home/andreas/Desktop/computer_architecture/project/gitlab/TOP/TOP_v3/TOP_v3.srcs/sources_1/bd/design_1/ipshared/da0b/booting.srcs/sources_1/imports/initializationProcess/booting.vhd:100]
WARNING: [Synth 8-327] inferring latch for variable 'random_reg' [/home/andreas/Desktop/computer_architecture/project/gitlab/TOP/TOP_v3/TOP_v3.srcs/sources_1/bd/design_1/ipshared/da0b/booting.srcs/sources_1/new/top.vhd:236]
WARNING: [Synth 8-327] inferring latch for variable 'cnt_reg' [/home/andreas/Desktop/computer_architecture/project/gitlab/TOP/TOP_v3/TOP_v3.srcs/sources_1/bd/design_1/ipshared/da0b/booting.srcs/sources_1/new/top.vhd:265]
---------------------------------------------------------------------------------
Finished RTL Optimization Phase 2 : Time (s): cpu = 00:00:39 ; elapsed = 00:00:46 . Memory (MB): peak = 1538.855 ; gain = 441.918 ; free physical = 266 ; free virtual = 3584
---------------------------------------------------------------------------------

Report RTL Partitions: 
+-+--------------+------------+----------+
| |RTL Partition |Replication |Instances |
+-+--------------+------------+----------+
+-+--------------+------------+----------+
---------------------------------------------------------------------------------
Start RTL Component Statistics 
---------------------------------------------------------------------------------
Detailed RTL Component Info : 
+---Adders : 
	   2 Input     31 Bit       Adders := 1     
	   2 Input     10 Bit       Adders := 4     
	   2 Input      8 Bit       Adders := 3     
	   2 Input      7 Bit       Adders := 5     
	   2 Input      6 Bit       Adders := 7     
	   2 Input      5 Bit       Adders := 1     
	   2 Input      2 Bit       Adders := 2     
+---Registers : 
	               31 Bit    Registers := 1     
	               19 Bit    Registers := 2     
	               15 Bit    Registers := 1     
	               10 Bit    Registers := 4     
	                8 Bit    Registers := 1     
	                7 Bit    Registers := 4     
	                6 Bit    Registers := 8     
	                5 Bit    Registers := 3     
	                2 Bit    Registers := 3     
	                1 Bit    Registers := 16    
+---RAMs : 
	              96K Bit         RAMs := 1     
	              89K Bit         RAMs := 1     
+---Muxes : 
	   2 Input     31 Bit        Muxes := 1     
	   8 Input     31 Bit        Muxes := 1     
	   2 Input     16 Bit        Muxes := 11    
	   3 Input     16 Bit        Muxes := 1     
	   8 Input      8 Bit        Muxes := 1     
	   8 Input      7 Bit        Muxes := 1     
	   2 Input      6 Bit        Muxes := 10    
	   6 Input      6 Bit        Muxes := 1     
	   7 Input      6 Bit        Muxes := 1     
	   8 Input      6 Bit        Muxes := 1     
	   2 Input      5 Bit        Muxes := 5     
	   6 Input      5 Bit        Muxes := 1     
	   2 Input      4 Bit        Muxes := 1     
	   8 Input      3 Bit        Muxes := 1     
	   2 Input      1 Bit        Muxes := 16    
	   8 Input      1 Bit        Muxes := 20    
---------------------------------------------------------------------------------
Finished RTL Component Statistics 
---------------------------------------------------------------------------------
---------------------------------------------------------------------------------
Start RTL Hierarchical Component Statistics 
---------------------------------------------------------------------------------
Hierarchical RTL Component report 
Module renderer 
Detailed RTL Component Info : 
+---Adders : 
	   2 Input     10 Bit       Adders := 1     
	   2 Input      8 Bit       Adders := 2     
	   2 Input      7 Bit       Adders := 3     
	   2 Input      6 Bit       Adders := 6     
+---Registers : 
	               15 Bit    Registers := 1     
	                7 Bit    Registers := 1     
	                6 Bit    Registers := 5     
	                2 Bit    Registers := 1     
	                1 Bit    Registers := 2     
+---RAMs : 
	              96K Bit         RAMs := 1     
+---Muxes : 
	   2 Input     16 Bit        Muxes := 11    
	   3 Input     16 Bit        Muxes := 1     
	   2 Input      6 Bit        Muxes := 7     
	   6 Input      6 Bit        Muxes := 1     
	   7 Input      6 Bit        Muxes := 1     
	   2 Input      5 Bit        Muxes := 1     
	   6 Input      5 Bit        Muxes := 1     
	   2 Input      4 Bit        Muxes := 1     
	   2 Input      1 Bit        Muxes := 9     
Module vga_connector 
Detailed RTL Component Info : 
+---Adders : 
	   2 Input     10 Bit       Adders := 3     
	   2 Input      2 Bit       Adders := 1     
+---Registers : 
	               10 Bit    Registers := 4     
	                6 Bit    Registers := 1     
	                5 Bit    Registers := 2     
	                2 Bit    Registers := 1     
	                1 Bit    Registers := 4     
+---Muxes : 
	   2 Input      6 Bit        Muxes := 2     
	   2 Input      5 Bit        Muxes := 4     
Module tile_manager 
Detailed RTL Component Info : 
+---Registers : 
	               19 Bit    Registers := 1     
+---RAMs : 
	              89K Bit         RAMs := 1     
Module booting 
Detailed RTL Component Info : 
+---Adders : 
	   2 Input     31 Bit       Adders := 1     
	   2 Input      8 Bit       Adders := 1     
	   2 Input      7 Bit       Adders := 2     
	   2 Input      5 Bit       Adders := 1     
	   2 Input      2 Bit       Adders := 1     
+---Registers : 
	               31 Bit    Registers := 1     
	               19 Bit    Registers := 1     
	                8 Bit    Registers := 1     
	                7 Bit    Registers := 3     
	                6 Bit    Registers := 2     
	                5 Bit    Registers := 1     
	                2 Bit    Registers := 1     
	                1 Bit    Registers := 10    
+---Muxes : 
	   2 Input     31 Bit        Muxes := 1     
	   8 Input     31 Bit        Muxes := 1     
	   8 Input      8 Bit        Muxes := 1     
	   8 Input      7 Bit        Muxes := 1     
	   2 Input      6 Bit        Muxes := 1     
	   8 Input      6 Bit        Muxes := 1     
	   8 Input      3 Bit        Muxes := 1     
	   2 Input      1 Bit        Muxes := 7     
	   8 Input      1 Bit        Muxes := 20    
Module top 
Detailed RTL Component Info : 
+---Adders : 
	   2 Input      6 Bit       Adders := 1     
---------------------------------------------------------------------------------
Finished RTL Hierarchical Component Statistics
---------------------------------------------------------------------------------
---------------------------------------------------------------------------------
Start Part Resource Summary
---------------------------------------------------------------------------------
Part Resources:
DSPs: 80 (col length:40)
BRAMs: 120 (col length: RAMB18 40 RAMB36 20)
---------------------------------------------------------------------------------
Finished Part Resource Summary
---------------------------------------------------------------------------------
---------------------------------------------------------------------------------
Start Cross Boundary and Area Optimization
---------------------------------------------------------------------------------
WARNING: [Synth 8-6014] Unused sequential element ind_reg was removed.  [/home/andreas/Desktop/computer_architecture/project/gitlab/TOP/TOP_v3/TOP_v3.srcs/sources_1/bd/design_1/ipshared/da0b/booting.srcs/sources_1/new/renderer.vhd:75]
WARNING: [Synth 8-6014] Unused sequential element tile_column_write_counter_reg was removed.  [/home/andreas/Desktop/computer_architecture/project/gitlab/TOP/TOP_v3/TOP_v3.srcs/sources_1/bd/design_1/ipshared/da0b/booting.srcs/sources_1/new/renderer.vhd:92]
WARNING: [Synth 8-6014] Unused sequential element x_reg was removed.  [/home/andreas/Desktop/computer_architecture/project/gitlab/TOP/TOP_v3/TOP_v3.srcs/sources_1/bd/design_1/ipshared/da0b/booting.srcs/sources_1/new/vga_connector.vhd:42]
INFO: [Synth 8-5546] ROM "state" won't be mapped to RAM because it is too sparse
INFO: [Synth 8-5546] ROM "tmp_rand" won't be mapped to RAM because it is too sparse
WARNING: [Synth 8-3331] design booting has unconnected port packet_in[31]
WARNING: [Synth 8-3331] design booting has unconnected port packet_in[30]
WARNING: [Synth 8-3331] design booting has unconnected port packet_in[29]
WARNING: [Synth 8-3331] design booting has unconnected port packet_in[28]
WARNING: [Synth 8-3331] design booting has unconnected port packet_in[27]
WARNING: [Synth 8-3331] design booting has unconnected port packet_in[26]
WARNING: [Synth 8-3331] design booting has unconnected port packet_in[25]
WARNING: [Synth 8-3331] design booting has unconnected port packet_in[24]
WARNING: [Synth 8-3331] design booting has unconnected port packet_in[23]
WARNING: [Synth 8-3331] design booting has unconnected port packet_in[22]
WARNING: [Synth 8-3331] design booting has unconnected port packet_in[21]
WARNING: [Synth 8-3331] design booting has unconnected port packet_in[20]
WARNING: [Synth 8-3331] design booting has unconnected port packet_in[19]
WARNING: [Synth 8-3331] design top has unconnected port sw[0]
WARNING: [Synth 8-3463] Infeasible ramstyle = block set for RAM sprites_data_reg,trying to implement using LUTRAM
WARNING: [Synth 8-3463] Infeasible ramstyle = block set for RAM sprites_data_reg,trying to implement using LUTRAM
WARNING: [Synth 8-3463] Infeasible ramstyle = block set for RAM sprites_data_reg,trying to implement using LUTRAM
WARNING: [Synth 8-3463] Infeasible ramstyle = block set for RAM sprites_data_reg,trying to implement using LUTRAM
INFO: [Synth 8-4652] Swapped enable and write-enable on 5 RAM instances of RAM tm/tm_reg to conserve power
INFO: [Synth 8-3886] merging instance 'U0/rend/boundary_Y_reg[0]' (FDRE) to 'U0/rend/boundary_Y_reg[5]'
INFO: [Synth 8-3886] merging instance 'U0/rend/boundary_Y_reg[1]' (FDRE) to 'U0/rend/boundary_Y_reg[2]'
INFO: [Synth 8-3886] merging instance 'U0/rend/boundary_Y_reg[2]' (FDRE) to 'U0/rend/boundary_Y_reg[3]'
INFO: [Synth 8-3333] propagating constant 0 across sequential element (U0/rend/\boundary_Y_reg[3] )
INFO: [Synth 8-3886] merging instance 'U0/random_reg[8]' (LD) to 'U0/random_reg[6]'
INFO: [Synth 8-3886] merging instance 'U0/random_reg[9]' (LD) to 'U0/random_reg[6]'
INFO: [Synth 8-3886] merging instance 'U0/random_reg[10]' (LD) to 'U0/random_reg[6]'
INFO: [Synth 8-3886] merging instance 'U0/random_reg[11]' (LD) to 'U0/random_reg[6]'
INFO: [Synth 8-3886] merging instance 'U0/random_reg[12]' (LD) to 'U0/random_reg[6]'
INFO: [Synth 8-3886] merging instance 'U0/random_reg[13]' (LD) to 'U0/random_reg[6]'
INFO: [Synth 8-3886] merging instance 'U0/random_reg[14]' (LD) to 'U0/random_reg[6]'
INFO: [Synth 8-3886] merging instance 'U0/random_reg[15]' (LD) to 'U0/random_reg[6]'
INFO: [Synth 8-3886] merging instance 'U0/random_reg[16]' (LD) to 'U0/random_reg[6]'
INFO: [Synth 8-3886] merging instance 'U0/random_reg[17]' (LD) to 'U0/random_reg[6]'
INFO: [Synth 8-3886] merging instance 'U0/random_reg[18]' (LD) to 'U0/random_reg[6]'
INFO: [Synth 8-3886] merging instance 'U0/random_reg[19]' (LD) to 'U0/random_reg[6]'
INFO: [Synth 8-3886] merging instance 'U0/random_reg[20]' (LD) to 'U0/random_reg[6]'
INFO: [Synth 8-3886] merging instance 'U0/random_reg[21]' (LD) to 'U0/random_reg[6]'
INFO: [Synth 8-3886] merging instance 'U0/random_reg[22]' (LD) to 'U0/random_reg[6]'
INFO: [Synth 8-3886] merging instance 'U0/random_reg[23]' (LD) to 'U0/random_reg[6]'
INFO: [Synth 8-3886] merging instance 'U0/random_reg[24]' (LD) to 'U0/random_reg[6]'
INFO: [Synth 8-3886] merging instance 'U0/random_reg[25]' (LD) to 'U0/random_reg[6]'
INFO: [Synth 8-3886] merging instance 'U0/random_reg[26]' (LD) to 'U0/random_reg[6]'
INFO: [Synth 8-3886] merging instance 'U0/random_reg[27]' (LD) to 'U0/random_reg[6]'
INFO: [Synth 8-3886] merging instance 'U0/random_reg[28]' (LD) to 'U0/random_reg[6]'
INFO: [Synth 8-3886] merging instance 'U0/random_reg[29]' (LD) to 'U0/random_reg[6]'
INFO: [Synth 8-3886] merging instance 'U0/random_reg[30]' (LD) to 'U0/random_reg[6]'
INFO: [Synth 8-3886] merging instance 'U0/random_reg[31]' (LD) to 'U0/random_reg[6]'
INFO: [Synth 8-3886] merging instance 'U0/random_reg[7]' (LD) to 'U0/random_reg[6]'
INFO: [Synth 8-3886] merging instance 'U0/rend/boundary_X_reg[0]' (FDRE) to 'U0/rend/boundary_X_reg[2]'
INFO: [Synth 8-3886] merging instance 'U0/rend/boundary_X_reg[1]' (FDRE) to 'U0/rend/boundary_X_reg[4]'
INFO: [Synth 8-3886] merging instance 'U0/rend/boundary_X_reg[2]' (FDRE) to 'U0/rend/boundary_X_reg[3]'
INFO: [Synth 8-3886] merging instance 'U0/rend/boundary_X_reg[3]' (FDRE) to 'U0/rend/boundary_X_reg[5]'
INFO: [Synth 8-3333] propagating constant 0 across sequential element (U0/rend/\boundary_X_reg[4] )
INFO: [Synth 8-3886] merging instance 'U0/rend/pixel_bus_reg[5]' (FDE_1) to 'U0/rend/pixel_bus_reg[9]'
INFO: [Synth 8-3886] merging instance 'U0/rend/pixel_bus_reg[6]' (FDE_1) to 'U0/rend/pixel_bus_reg[8]'
INFO: [Synth 8-3886] merging instance 'U0/rend/pixel_bus_reg[10]' (FDE_1) to 'U0/rend/pixel_bus_reg[14]'
INFO: [Synth 8-3886] merging instance 'U0/rend/pixel_bus_reg[11]' (FDE_1) to 'U0/rend/pixel_bus_reg[13]'
INFO: [Synth 8-3886] merging instance 'U0/rend/pixel_bus_reg[0]' (FDE_1) to 'U0/rend/pixel_bus_reg[4]'
INFO: [Synth 8-3886] merging instance 'U0/rend/pixel_bus_reg[1]' (FDE_1) to 'U0/rend/pixel_bus_reg[3]'
INFO: [Synth 8-3886] merging instance 'U0/vga/vga_b_reg[0]' (FD) to 'U0/vga/vga_b_reg[4]'
INFO: [Synth 8-3886] merging instance 'U0/vga/vga_b_reg[1]' (FD) to 'U0/vga/vga_b_reg[3]'
INFO: [Synth 8-3886] merging instance 'U0/vga/vga_g_reg[0]' (FD) to 'U0/vga/vga_g_reg[4]'
INFO: [Synth 8-3886] merging instance 'U0/vga/vga_g_reg[1]' (FD) to 'U0/vga/vga_g_reg[3]'
INFO: [Synth 8-3886] merging instance 'U0/vga/vga_r_reg[0]' (FD) to 'U0/vga/vga_r_reg[4]'
INFO: [Synth 8-3886] merging instance 'U0/vga/vga_r_reg[1]' (FD) to 'U0/vga/vga_r_reg[3]'
WARNING: [Synth 8-3332] Sequential element (boundary_X_reg[4]) is unused and will be removed from module renderer.
WARNING: [Synth 8-3332] Sequential element (boundary_Y_reg[3]) is unused and will be removed from module renderer.
WARNING: [Synth 8-3332] Sequential element (anim_enable_reg) is unused and will be removed from module vga_connector.
WARNING: [Synth 8-3332] Sequential element (pnt_tx_reg[1]) is unused and will be removed from module booting.
WARNING: [Synth 8-3332] Sequential element (pnt_tx_reg[0]) is unused and will be removed from module booting.
WARNING: [Synth 8-3332] Sequential element (transm_reg[4]) is unused and will be removed from module booting.
WARNING: [Synth 8-3332] Sequential element (transm_reg[3]) is unused and will be removed from module booting.
WARNING: [Synth 8-3332] Sequential element (transm_reg[2]) is unused and will be removed from module booting.
WARNING: [Synth 8-3332] Sequential element (transm_reg[1]) is unused and will be removed from module booting.
WARNING: [Synth 8-3332] Sequential element (transm_reg[0]) is unused and will be removed from module booting.
WARNING: [Synth 8-3332] Sequential element (ch_tx0_reg) is unused and will be removed from module booting.
WARNING: [Synth 8-3332] Sequential element (ch_tx1_reg) is unused and will be removed from module booting.
WARNING: [Synth 8-3332] Sequential element (tile_out_reg[18]) is unused and will be removed from module booting.
WARNING: [Synth 8-3332] Sequential element (tile_out_reg[17]) is unused and will be removed from module booting.
WARNING: [Synth 8-3332] Sequential element (tile_out_reg[16]) is unused and will be removed from module booting.
WARNING: [Synth 8-3332] Sequential element (tile_out_reg[15]) is unused and will be removed from module booting.
WARNING: [Synth 8-3332] Sequential element (tile_out_reg[14]) is unused and will be removed from module booting.
WARNING: [Synth 8-3332] Sequential element (tile_out_reg[13]) is unused and will be removed from module booting.
WARNING: [Synth 8-3332] Sequential element (tile_out_reg[12]) is unused and will be removed from module booting.
WARNING: [Synth 8-3332] Sequential element (tile_out_reg[11]) is unused and will be removed from module booting.
WARNING: [Synth 8-3332] Sequential element (tile_out_reg[10]) is unused and will be removed from module booting.
WARNING: [Synth 8-3332] Sequential element (tile_out_reg[9]) is unused and will be removed from module booting.
WARNING: [Synth 8-3332] Sequential element (tile_out_reg[8]) is unused and will be removed from module booting.
INFO: [Synth 8-3333] propagating constant 0 across sequential element (U0/rend/\addr_X_reg[6] )
WARNING: [Synth 8-3332] Sequential element (boundary_X_reg[5]) is unused and will be removed from module renderer.
WARNING: [Synth 8-3332] Sequential element (addr_X_reg[6]) is unused and will be removed from module renderer.
WARNING: [Synth 8-3332] Sequential element (boundary_Y_reg[5]) is unused and will be removed from module renderer.
WARNING: [Synth 8-3332] Sequential element (boundary_Y_reg[4]) is unused and will be removed from module renderer.
---------------------------------------------------------------------------------
Finished Cross Boundary and Area Optimization : Time (s): cpu = 00:01:01 ; elapsed = 00:01:11 . Memory (MB): peak = 1538.855 ; gain = 441.918 ; free physical = 215 ; free virtual = 3546
---------------------------------------------------------------------------------
---------------------------------------------------------------------------------
Start ROM, RAM, DSP and Shift Register Reporting
---------------------------------------------------------------------------------

Block RAM: Preliminary Mapping  Report (see note below)
+--------------+------------+------------------------+---+---+------------------------+---+---+------------------+--------+--------+
|Module Name   | RTL Object | PORT A (Depth x Width) | W | R | PORT B (Depth x Width) | W | R | Ports driving FF | RAMB18 | RAMB36 | 
+--------------+------------+------------------------+---+---+------------------------+---+---+------------------+--------+--------+
|tile_manager: | tm_reg     | 8 K x 19(READ_FIRST)   | W |   | 8 K x 19(WRITE_FIRST)  |   | R | Port A and B     | 0      | 5      | 
+--------------+------------+------------------------+---+---+------------------------+---+---+------------------+--------+--------+

Note: The table above is a preliminary report that shows the Block RAMs at the current stage of the synthesis flow. Some Block RAMs may be reimplemented as non Block RAM primitives later in the synthesis flow. Multiple instantiated Block RAMs are reported only once. 

Distributed RAM: Preliminary Mapping  Report (see note below)
+------------+------------------+----------------+----------------------+-----------------+
|Module Name | RTL Object       | Inference      | Size (Depth x Width) | Primitives      | 
+------------+------------------+----------------+----------------------+-----------------+
|U0/rend     | sprites_data_reg | Implied        | 32 K x 6             | RAM64M x 1542   | 
|U0/rend     | tiles_reg        | User Attribute | 64 x 7               | RAM64M x 3      | 
+------------+------------------+----------------+----------------------+-----------------+

Note: The table above is a preliminary report that shows the Distributed RAMs at the current stage of the synthesis flow. Some Distributed RAMs may be reimplemented as non Distributed RAM primitives later in the synthesis flow. Multiple instantiated RAMs are reported only once.
---------------------------------------------------------------------------------
Finished ROM, RAM, DSP and Shift Register Reporting
---------------------------------------------------------------------------------

Report RTL Partitions: 
+-+--------------+------------+----------+
| |RTL Partition |Replication |Instances |
+-+--------------+------------+----------+
+-+--------------+------------+----------+
---------------------------------------------------------------------------------
Start Applying XDC Timing Constraints
---------------------------------------------------------------------------------
---------------------------------------------------------------------------------
Finished Applying XDC Timing Constraints : Time (s): cpu = 00:01:20 ; elapsed = 00:01:33 . Memory (MB): peak = 1551.855 ; gain = 454.918 ; free physical = 139 ; free virtual = 3421
---------------------------------------------------------------------------------
---------------------------------------------------------------------------------
Start Timing Optimization
---------------------------------------------------------------------------------
---------------------------------------------------------------------------------
Finished Timing Optimization : Time (s): cpu = 00:01:21 ; elapsed = 00:01:34 . Memory (MB): peak = 1553.855 ; gain = 456.918 ; free physical = 138 ; free virtual = 3419
---------------------------------------------------------------------------------

Report RTL Partitions: 
+-+--------------+------------+----------+
| |RTL Partition |Replication |Instances |
+-+--------------+------------+----------+
+-+--------------+------------+----------+
---------------------------------------------------------------------------------
Start Technology Mapping
---------------------------------------------------------------------------------
INFO: [Synth 8-4480] The timing for the instance U0/tm/tm_reg_0 (implemented as a block RAM) might be sub-optimal as no optional output register could be merged into the block ram. Providing additional output register may help in improving timing.
INFO: [Synth 8-4480] The timing for the instance U0/tm/tm_reg_1 (implemented as a block RAM) might be sub-optimal as no optional output register could be merged into the block ram. Providing additional output register may help in improving timing.
---------------------------------------------------------------------------------
Finished Technology Mapping : Time (s): cpu = 00:01:26 ; elapsed = 00:01:39 . Memory (MB): peak = 1596.129 ; gain = 499.191 ; free physical = 133 ; free virtual = 3415
---------------------------------------------------------------------------------

Report RTL Partitions: 
+-+--------------+------------+----------+
| |RTL Partition |Replication |Instances |
+-+--------------+------------+----------+
+-+--------------+------------+----------+
---------------------------------------------------------------------------------
Start IO Insertion
---------------------------------------------------------------------------------
---------------------------------------------------------------------------------
Start Flattening Before IO Insertion
---------------------------------------------------------------------------------
---------------------------------------------------------------------------------
Finished Flattening Before IO Insertion
---------------------------------------------------------------------------------
---------------------------------------------------------------------------------
Start Final Netlist Cleanup
---------------------------------------------------------------------------------
---------------------------------------------------------------------------------
Finished Final Netlist Cleanup
---------------------------------------------------------------------------------
---------------------------------------------------------------------------------
Finished IO Insertion : Time (s): cpu = 00:01:30 ; elapsed = 00:01:44 . Memory (MB): peak = 1596.129 ; gain = 499.191 ; free physical = 130 ; free virtual = 3413
---------------------------------------------------------------------------------

Report Check Netlist: 
+------+------------------+-------+---------+-------+------------------+
|      |Item              |Errors |Warnings |Status |Description       |
+------+------------------+-------+---------+-------+------------------+
|1     |multi_driven_nets |      0|        0|Passed |Multi driven nets |
+------+------------------+-------+---------+-------+------------------+
---------------------------------------------------------------------------------
Start Renaming Generated Instances
---------------------------------------------------------------------------------
---------------------------------------------------------------------------------
Finished Renaming Generated Instances : Time (s): cpu = 00:01:30 ; elapsed = 00:01:44 . Memory (MB): peak = 1596.129 ; gain = 499.191 ; free physical = 130 ; free virtual = 3413
---------------------------------------------------------------------------------

Report RTL Partitions: 
+-+--------------+------------+----------+
| |RTL Partition |Replication |Instances |
+-+--------------+------------+----------+
+-+--------------+------------+----------+
---------------------------------------------------------------------------------
Start Rebuilding User Hierarchy
---------------------------------------------------------------------------------
---------------------------------------------------------------------------------
Finished Rebuilding User Hierarchy : Time (s): cpu = 00:01:31 ; elapsed = 00:01:44 . Memory (MB): peak = 1596.129 ; gain = 499.191 ; free physical = 130 ; free virtual = 3412
---------------------------------------------------------------------------------
---------------------------------------------------------------------------------
Start Renaming Generated Ports
---------------------------------------------------------------------------------
---------------------------------------------------------------------------------
Finished Renaming Generated Ports : Time (s): cpu = 00:01:31 ; elapsed = 00:01:45 . Memory (MB): peak = 1596.129 ; gain = 499.191 ; free physical = 130 ; free virtual = 3412
---------------------------------------------------------------------------------
---------------------------------------------------------------------------------
Start Handling Custom Attributes
---------------------------------------------------------------------------------
---------------------------------------------------------------------------------
Finished Handling Custom Attributes : Time (s): cpu = 00:01:31 ; elapsed = 00:01:45 . Memory (MB): peak = 1596.129 ; gain = 499.191 ; free physical = 130 ; free virtual = 3412
---------------------------------------------------------------------------------
---------------------------------------------------------------------------------
Start Renaming Generated Nets
---------------------------------------------------------------------------------
---------------------------------------------------------------------------------
Finished Renaming Generated Nets : Time (s): cpu = 00:01:31 ; elapsed = 00:01:45 . Memory (MB): peak = 1596.129 ; gain = 499.191 ; free physical = 130 ; free virtual = 3412
---------------------------------------------------------------------------------
---------------------------------------------------------------------------------
Start Writing Synthesis Report
---------------------------------------------------------------------------------

Report BlackBoxes: 
+-+--------------+----------+
| |BlackBox name |Instances |
+-+--------------+----------+
+-+--------------+----------+

Report Cell Usage: 
+------+---------+------+
|      |Cell     |Count |
+------+---------+------+
|1     |CARRY4   |   140|
|2     |LUT1     |    99|
|3     |LUT2     |   272|
|4     |LUT3     |   286|
|5     |LUT4     |   135|
|6     |LUT5     |   117|
|7     |LUT6     |  1416|
|8     |MUXF7    |   408|
|9     |MUXF8    |   204|
|10    |RAM64M   |  1039|
|11    |RAMB36E1 |     2|
|12    |FDRE     |   465|
|13    |LD       |    13|
+------+---------+------+

Report Instance Areas: 
+------+---------+--------------+------+
|      |Instance |Module        |Cells |
+------+---------+--------------+------+
|1     |top      |              |  4596|
|2     |  U0     |top           |  4546|
|3     |    boot |booting       |  1098|
|4     |    rend |renderer      |  3122|
|5     |    tm   |tile_manager  |    24|
|6     |    vga  |vga_connector |   280|
+------+---------+--------------+------+
---------------------------------------------------------------------------------
Finished Writing Synthesis Report : Time (s): cpu = 00:01:31 ; elapsed = 00:01:45 . Memory (MB): peak = 1596.129 ; gain = 499.191 ; free physical = 130 ; free virtual = 3412
---------------------------------------------------------------------------------
Synthesis finished with 0 errors, 0 critical warnings and 57 warnings.
Synthesis Optimization Runtime : Time (s): cpu = 00:01:19 ; elapsed = 00:01:30 . Memory (MB): peak = 1596.129 ; gain = 172.770 ; free physical = 189 ; free virtual = 3472
Synthesis Optimization Complete : Time (s): cpu = 00:01:31 ; elapsed = 00:01:45 . Memory (MB): peak = 1596.137 ; gain = 499.191 ; free physical = 189 ; free virtual = 3472
INFO: [Project 1-571] Translating synthesized netlist
INFO: [Netlist 29-17] Analyzing 1194 Unisim elements for replacement
INFO: [Netlist 29-28] Unisim Transformation completed in 3 CPU seconds
INFO: [Project 1-570] Preparing netlist for logic optimization
INFO: [Opt 31-138] Pushed 1 inverter(s) to 1038 load pin(s).
INFO: [Project 1-111] Unisim Transformation Summary:
  A total of 1052 instances were transformed.
  LD => LDCE: 13 instances
  RAM64M => RAM64M (RAMD64E, RAMD64E, RAMD64E, RAMD64E): 3 instances
  RAM64M => RAM64M (inverted pins: WCLK) (RAMD64E, RAMD64E, RAMD64E, RAMD64E): 1036 instances

94 Infos, 91 Warnings, 0 Critical Warnings and 0 Errors encountered.
synth_design completed successfully
synth_design: Time (s): cpu = 00:01:41 ; elapsed = 00:01:57 . Memory (MB): peak = 1596.137 ; gain = 511.785 ; free physical = 266 ; free virtual = 3635
INFO: [Common 17-1381] The checkpoint '/home/andreas/Desktop/computer_architecture/project/gitlab/TOP/TOP_v3/TOP_v3.runs/design_1_rendVgaTmBoot_0_2_synth_1/design_1_rendVgaTmBoot_0_2.dcp' has been generated.
