Design Route Status
                                               :      # nets :
   ------------------------------------------- : ----------- :
   # of logical nets.......................... :       11141 :
       # of nets not needing routing.......... :        6553 :
           # of internally routed nets........ :        6419 :
           # of nets with no loads............ :         134 :
       # of routable nets..................... :        4588 :
           # of fully routed nets............. :        4588 :
       # of nets with routing errors.......... :           0 :
   ------------------------------------------- : ----------- :

