########################################
#            .    .    ====   .        #
#            .    .   .=..=   .        #
#            .    .   .=..====.===  .  #
#         ===.=== .   .==.==.........  #
#         =.....=_.___.__._=.....=  .  #
#...............=_..__...............  #
#         =..............._=.....=  .  #
# ..............=_______.__======= _.__#
#         ======= #####_.___________.._#
#    ####         #...#_......__......_#
######..# ........................__.._#
##..##........... #...#_____.__________#
##..##..#         #.......  .          #
##......#         ##.##  . ..  ####### #
##..##..#  .      __.__  . ..........# #
##### ..   .  ####_...___._.___#.<...# #
#     ..   .  #..#_...__.............# #
#     ..   .  #..............._#.....# #
#    ...   .  ####______......_####### #
#    . .   .           __._____        #
#  __._.__#.##       ____.__________   #
#  _....._#..########_......__....._   #
#........_#.........#_.>....__....._   #
#  _.........##........................#
#...........###.....#__.__.___....._   #
#  __.____    #######  .  .  _______   #
#    .                 .  .            #
#    .                 .               #
########################################
