########################################
#    _____        .     _______    .   #
#    _..._########. .   _....._    .   #
#........_#......#. .   _..<.....  .   #
#    _.>.........#. .   _....._    .   #
#  ......_#......#. .   ___.___    .   #
#    __.__########. .   ###.####  #.## #
#  ####.#########_._._  #......#  #..# #
#  #......##....#_.............#.....# #
#...................._. #......#  ##.# #
#  #......##.#.##_____. ###.##.# ###.###
#  ##.###.# .#.#####  .    .==.==#....##
# ===.===.  .#.....#__._   .=.........##
# =.....=.. .#..............=...=###.###
# =.....=.. .####.##_.._ ............  #
# ====.==.. .  __._ _.......=.===   .  #
# ====.===. .. _.._ _.._  ===.===   .  #
# =......=. .. _......._  =..........  #
# =......=. .. ____   .   =.....=.  .  #
# =......=. ..  .     .   =====.=.  .  #
# ========. ..  .           ___._._ .  #
# _______ . .. #.###  ======_....._====#
# _....._=.=..=#...#  =....=_....._=..=#
# _................#  =...............=#
# _....._=....=###.#  =....=____.__====#
# _______=....=   .   ===.==####.###   #
#     ........=   .      .  #......#   #
#        ======          .  #..........#
#                           ########   #
########################################
