########################################
#         _____            .      #### #
#     ........_.           .      #..# #
# ########_..._.           .    .....# #
# #..##..#_..._.   ####    . ==== ##.# #
# #..........._.   #..#    . =..====.==#
# ########__.__.   #........ =........=#
#     ______.__._.....#  __._=====....=#
#     _..__....._  ##.#  _............=#
# _____..__.<..._####.## _.._    ===.==#
# _..__................# __._ ######.# #
# _......__....._#.....####.###......# #
# ______.__._____#.....##............# #
#    ###.##.     #........>..######### #
#    #....#.     ###.####..............#
#  .......#   ====##.## ##.###         #
#    ###.##......=#...#___.___         #
#     ##.#    =.......#_.............. #
#........#    ==.=#####_....._         #
#     #..#    . ............._     ____#
##### ##.#    . .####  __.__._ ####_.._#
##..#===.=====.==#..#  ==.= .  #..#_.._#
##..#=....==........#  =..= .........._#
##..............=#..#  =..=..  #..#_.._#
##..#=....==.====##.#  =.==..  ##.#____#
##.##====== .    ##.#   .==..==__._____#
# .         .    #.......=....=_......_#
# .         .    #..#    =............_#
#                ####    ======________#
########################################
