########################################
#                .           .      .  #
#    ####        .           .      .  #
#    #..#        .  .   _____.______.__#
#    #..# .      .  . .........__....._#
#.......# .      .  .   _..<.........._#
#######.# .      .  ...........___.____#
##..#==.==.=     .  .   ____.___  .    #
##..#=.....=   ##.##.#======.=    .    #
##.....>.............#=.........  .    #
##...........  #.............=    .    #
##.##          ###.###=............    #
# .           ####.## ========    .    #
# .    =======#.....#      ____ . .    #
# .  ........=#.....#      _.._ . .    #
# .    =......................_ . .    #
# .  ........=#.....#   .  ____#.#.##  #
# .    =======#####.#   .   ........#  #
# .=====###########.### .  #####....#  #
# .=...=#.....##......# ...............#
# .=..........................##....#  #
# .=.......#####......#    #.###.####  #
#  ==.==       ##.#####   __.__ .      #
# ===.=========__._==== ......_ .      #
# =....==.....=_.._=..=   _............#
# =....==.....=_.._=..=   _____        #
# =======.............=                #
#       =.....=____=...............    #
#       =======    ====                #
########################################
