########################################
#                . .         .         #
#             .  . .         .         #
#             .  . . _______ .      .  #
#      #####__._ . . _....._#.####  .  #
#      #...#_.._ . . _...........#  .  #
#.............._=.=.=_______#....#==.= #
# .   .#####_.......=____   ###.##=..= #
# .   .     _.._=......._   ###.##=..= #
#_.__ .     ____=...=_.._   #........= #
#_.._#.##       =====_.._   #....#=..= #
#_......#   ====#### __._   ###.##=.== #
#_.__#.........=#..#===.=======.== .   #
# .  #..#   =..=#........==......= .   #
# .  #.##   =......#=............= .   #
#     .  ......=####=..>.=====.=== .   #
#     .     =.==    =....=  ==.=  ...  #
#     .   ===.===   =.====  =..=  ...  #
#     .   =.....=. ==.=======........  #
#     . ........=. =...==..==..=  ...  #
#        .=.....=. =.......===.=  ...  #
#        .=====.=. =.=======__.__ ...  #
#    ####.##___._._ .=======_..._#.#.# #
#    #.....#_....._ .=.....=_..._#...# #
# .........#_....._ .=...............# #
#    #..<........._ ....=.==_..._#...# #
#    #...............    .  _.___##.## #
#    #######             .   .     .   #
#                            .     .   #
########################################
