########################################
#      ##########            #######   #
#   .  #..##....#.        .........#   #
#   .  #........#.       ____#.....#   #
#___.__#..##.#.##.   .   _.._###.###   #
#_...._#### ._.__.__ .   _.._ __.___   #
#_...._.    ._....._ .   _.._ _...._   #
#___.__.    ._....._=.== __._ _...._   #
####.# .    .___.___=..====.==___.__   #
##...##.##   ###.## =..==....=###.###  #
##.......#   #....# =..==....=#........#
#######......#....# =..==.<.........#  #
#     ##.#   ###.## ==.==....=#######  #
#    ___.___####.###__._===.==  _____  #
# ........._#......#_.....=.====_..._  #
#    _................._  =.......>._  #
#.........._########__._.......=_..._  #
#    __.__.___________.__ ===.==___._  #
#    ##.# . _......__..._####.#####.## #
# ......# . _..........._#.....##....# #
#    #..# . _......__..........##....# #
#.......# . _._______..._#.....##....# #
#    #..#  __.________.__#####.####### #
#    ####  _..__..._==.==  ___.__      #
#   =======_......._=...=..............#
#   =.....=_..______=...=  _...._      #
#   =...................=  ______      #
#   =======____     =====              #
#                                      #
########################################
