########################################
#        .             ===========     #
# #####  .           .......==...=     #
# #....... ====####    =.<.......=     #
# #...#  . =..=#..#  .......==...=     #
# #...#  . =......#===========...= #####
#  ...___._==.=#..#=..=      ==.== #..##
#  ..._..._  . #..#=.....  ____.___#..##
#   .._..._ .. ##.#==.=    _..........##
#   . _..._ .  __.___._..........._#..##
#   . _..._ .  _......_    ____.___#.###
#   . __.__ .  _.............._.__  .  #
#  #.###.###.##____.___  ........_  .  #
#  #.....##...#  ##.#         _.._  .  #
#  #.....##...#.....#____     _.._. .  #
#  #..........#  #..#_.._     _.._. .  #
#  #.....##...#  #............__._.    #
#  #########.##  ##.#____     __._.___ #
#         ##.######.###=======_......_ #
#   ..........##......#=............._ #
###########...##......#=...>.=_.___.__ #
##...##..##..................= .   .   #
##............##......#=.....= .   .   #
####.###.##.####.#.##.#==.==.= .   .   #
# ##.## .  .  __._.  .   .##.# .   .   #
# #...# .  .  _.._.  .   .#.........   #
# #......  .  _.._.      .#..#         #
# #...#    ......_.      .#..#         #
# #####       ____.      .####         #
########################################
