########################################
#                   _____======####### #
#      _______######_..._=....=#.....# #
#   ........._#........._=...........# #
#      _...........#_____======#.....# #
#      ___.___##.###  ____ ..........# #
#       __._____.   ....._     ###.### #
# .     _......_.     _.........==.=   #
# ............._. .   _.._      =..=   #
# .     ____.___. .   _.._      =..... #
# .    =====.== . .   __._######==.=   #
#=.=====......=   .  ###.##....#__._   #
#=....==......====.==#...##....#_.._   #
#=..................=#.>.......#_.._   #
#=======......==.........##........... #
#      ==.===.==....=#...#######_.._   #
#####____.___. =..............  __._   #
##..#_......_..==.===  .      ####.    #
##.........._..__.__ . .      #..#.    #
###.#_......_.._..._ . .   ......#.    #
###.#_......_.._..._=.=.=  .  ##.#     #
##..#____.___.._.___=...=  . ===.===   #
##..# ===.==##.#.###=...=##.#=.....=   #
###.# =....=#...........=#.......<.... #
#==.= =....=#......#=.......#=.....=   #
#=..= =....=#............####====.==   #
#=..= ======#......#             .     #
#=..=       ########             .     #
#====                            .     #
########################################
