########################################
#      .    . .          #######       #
# .    .    . .    ....................#
# .  __._   . .          #.....#       #
##.##_.._###.#.#. =======###.###       #
##..#_.._#.....#. =.....====.====      #
##.............#................=      #
###.#_.._#...........=====.............#
###.#__._###.###  .   ......<...=      #
##..#  .  ==.==== .   .  =.........    #
##..#  .  =.....=_.__#.##====.===      #
##..# .............._#..#____.__       #
###.#     =.==.==_......#_............ #
#__._====  .__._ _.._#........._.      #
#_.._=..=  ._.._ __._####____.__.      #
#_......=  ._.._===.====     .  .      #
#____====  ...._=........... .  .      #
#   _______.    =......=    ..  .      #
#   _....._.    ==.=.=.=    .  _.___   #
#   _....._       . . .  .##.##_..._   #
#   _....._      .. . .  .#........_   #
#   ___.___      .. . .  .#...#_.___   #
# _____._____    .. . .  .##.## .      #
# _..__....._   =..=.    . #.###.      #
# _................= ................. #
# _._________   =......>.......#       #
#  .            =.==  ...............  #
#  .             .         #####       #
#  .             .                     #
########################################
