########################################
#            ======            _____   #
#            =....=       ........._   #
#            =....=####      . _..._   #
# ................=#..#      . __.__   #
#            ===.==#.......... ##.###  #
#          _____._ ##.#      . #....#  #
#       ........._ ==.==#####.##....#. #
#          _...>._ =...=#...........#. #
#    ............_ =..........##....#. #
#   =====  _....._ =...=#.....#####.#. #
#   =...=  ___.___ ==.==####.##.===.=.=#
#   =...= ####.###___._     .  .=.....=#
#   =...= #......#_..........  .=.....=#
#   ==.== #..........._     .  .=.....=#
#  ___.__ ##.##.##_.___     .  .=.==.==#
#  _...._###.##.===.===     . _._.__.  #
#  _..........#.=.....=     . _...._.  #
#  __.___#....#.=.......... . _....... #
#    . . #....#.=.....=     . _...._   #
#    . . ##.#.#.=.....=     . ____._   #
# .  . . __._. .==.==.=     . ====.=== #
# .  . . _.._. .__.__.=========......= #
# .  . . _.._. ._..._.=......==....<.= #
#=.=== . _.__. ._..._.=..............= #
#=...=#.##.### ._..._........==.==.=== #
#=...........# .___._.      .  .  .    #
#=...=#......# .   .        .  .  .    #
#=====######## .   .           .  .    #
########################################
