########################################
#       ====                      .    #
####### =..=       .              .    #
##....# =......    .              .    #
##....# =..=      _.____      .   .    #
####.## =..=. ............    .  #.##  #
# __.__ ==.=.    ._...._   .  .  #..#  #
# _..._===.=.==  .___.__   .  ......#  #
# _...........=  . ==.=    .  .  #.....#
# _____=......=  . =..=.   .  .  #..#  #
#      =.<....=  . =..=.   .  .  ##.#  #
#.............=  . =..=.   .  . ___._  #
#      ====.===  . ==.=. ##.##.#_..._  #
#   #######.#####.##_._._#.....#_..._  #
#   #..##...##.....#_..............._  #
#   #..................._#.##.##_..._  #
#   ######.###.###.#__.__ .==.==__.__  #
#      ===.===.   .###.## .=...=  .    #
#............=.   .#....# .=...=  .    #
#      =.....=.   .#....# .==.== ____  #
#      ==.==.=.   .#.#.##____.____.._  #
#        .  . .   . . .  _.........._  #
#        .  . .   . . .  _......__.._  #
#      ==.= . .   . . .  _.___.___.__  #
#  .......= . .   . . .   .   .###.##  #
#  ____=..= . .   . . .   .   .#....#  #
#  _.._=..= . .   . . .       .#..>.#  #
#  _......= .     . . .       .#....#  #
#  ____==== .     . . .       .######  #
########################################
