########################################
# =======                         .    #
# =.....= .          ========     .    #
# =.....= .  ________=......=  ===.=   #
# ===.=== .  _..__..........=  =.......#
#    .    .  _......_====.===  =.>.=   #
#    .    .  ______._    .  .......=   #
#   _.__==.=     ==.=    .     ==.==   #
#   _.._=........=..=           =.===  #
# . _......=     =............. =...=  #
# . ____=...........=       ........=  #
# .   .......... =.........     ==.==  #
#_.__   =.==     ==.=          ###.##  #
#_.._____.___    ==.=========. #....#  #
#_.........._    =..==......=. #....#  #
#_..__......................=. ###.##  #
#_____.______    =.===.====.=. ###.#   #
#  ===.===        .  .. ___._._#...#   #
#  =...............  .. _....._#...#   #
#........=        .  .. _............. #
#  =====.=       ..  .. _____._#...#   #
#     ==.==      ..  ..____##.##.#.#   #
#     =...=_____ ..  .._.._#..# . .    #
#.......<.=_.......... _.._#..# . .    #
#     =........_ .............# . .    #
#     =.===___._       _.._#..# . .    #
#      .      .        ____#.##   .    #
#      .      .             .     .    #
#      .                    .     .    #
########################################
