########################################
#          .                 .         #
#          .                 .         #
#  ______  .                 .         #
#......._==.==  .     .    __._____    #
#  _.........=  .     .    _...........#
#  _.____=...=__._    ............_    #
####.##  =......._____.__. ____.___    #
##....#  =...=_........._.  ___.__     #
##....#  =.===_____...<._........_     #
##....# ##.#............... _.......   #
###.#.# #..#      _....._   ___.__     #
#==.=.  #........ ___.___######.#####  #
#=..=.  #.##        =.===#......##..#  #
#=..=. __.__        =........>......#  #
#=..=. _................=#......#####  #
#=..=. _..._     .  =...=###.####      #
#====. ___._     .  ===== __._         #
#  ____===.===   .        _.._______   #
#  _.._=.....=   . ..........__...._   #
#  _.._=.....====.=       _..__...._   #
#  _.........==...................._   #
# ._.._=..........=       _____...._   #
# .__._==.==.==...= ________  ____._   #
#=.==.===.  . =.=== _......_______._   #
#=......=.  .  .    _......__..__..... #
#=......=.  .  .    _.............._   #
#========.  .  . ......................#
#              .    ________           #
########################################
