########################################
#####         ####      =====     .    #
##...............#      =...= .   .    #
##..#         #........ =...= .   .    #
###.#         #..#  . . ==.== . ##.##  #
###.######### ##.#  . .  #.###.##...#  #
##......##..####.##=.=.==#..........#  #
##................#=....=#.....####.#  #
##......######....#=...........#   .   #
#######.#  .............=#.....#   .   #
#  ____.___  #....#=....=####### ##### #
#  _..........#####===.==  #######...# #
#  _....>._      ####_.____#....##...# #
#  _......_      #..#_.............<.# #
#  ________..............._#....##...# #
#        =====   #..#_...._###.####### #
#    ........=   #..#____._ ##.#_____  #
#        =...=   ####  __.__#..#_..._  #
# _______==.==  . ........._#......._  #
# _....._==.=== .      _..._#.##_____  #
# _...........=_.____  _.___ .         #
# _.__.__=.........._###.### .         #
#__._ .  =....=_.......................#
#_...... ====.=_.__._#.....#           #
#_.._      ==.= .==.=#######           #
#_.__      =..= .=.....................#
# .     ......= .=..=                  #
# .        ====  ====                  #
#                                      #
########################################
