########################################
#       .        .    .    .           #
#______ .        .    . .  .     ===== #
#_...._=.========.=== . . =.======...= #
#_...._=......==....=_._._=..........= #
#_............==....=_..._=.....==...= #
#_...._=......==....=_.................#
#____._====.====........._=.....=      #
#    .  ###.#  ===.==_..._==.==.=  .   #
#  . .  #...######.##___._  .##.## .   #
#  . ....................   .#...#_.___#
#__.___ #...##......#.  . . .#...#_..._#
#_...._ ######......#.    . .#........_#
#_..................#.    . .#...#_..._#
#_...._      ####.###.    .  #####_____#
#___.__====     _.___.__  .            #
#===.===..=  .........._##.####        #
#=....==..= ####_.<..>._#.....#        #
#=........= #..#_....................  #
#==.====..= #.........._#####.#        #
###.## ==== #..#_.___.__     .    #### #
##...#      #.## .###.##     ........# #
##....... ###.###.#..................# #
##...#    #.....#.#....#    .     #..# #
###.##    #.....#.#....#    .     ##.# #
#  .    .................. =.====___.__#
#  .      #######          =....=_...._#
#                       .............._#
#                          ======______#
########################################
