########################################
#         .                =====       #
#         .   .  ======____=...======= #
#   ______._  .  =....=_.......==....= #
#   _......_==.= =........_=.........= #
#   _..........= ===.==____=========== #
#   _.__.___=..=####.###_______        #
# ###.##. .....=#......#_....._ ####   #
# #....#.   =................._ #..#   #
# #....#.   ==.=########____.__ #..#   #
# ######.    _.___          .   ##.#   #
#  ======    _..._======####.=====.=   #
#  =...................=#..# =.....=   #
#  =....=    _____=........# =.....=   #
#  ===.== _______ ===.==#### ===.===   #
#  ===.===_....._____._     ####.###   #
#  =.....=_.>........._ ...........#   #
#  =............__.................... #
#  ==.====___.____...._     ########   #
#  __.__  ###.###_...._                #
#  _..._  #.....#____._  ########      #
#  _..._........# ___.___#......#####  #
#  _..._  ###.#.# _....._#......##..#  #
#  _.......  . .  _.<...............#  #
#  ___._     . .  _....._#......##.##  #
#   __.______. ........._####.#.# .    #
#   _..__..._. .  ___.___    . .  .    #
# .........._. .     .       . .       #
#   _________  .     .       . .       #
########################################
