########################################
#       ======                         #
#  _____=....=       .                 #
#  _..._=....=#####  .         ______  #
#  _..._=.........#  .     ........._  #
#  __.__=....=#...#  .     .   _...._  #
#####.# ======##.##  .     . ......._  #
##....#________#.####.#    .   ___.__  #
##............_#......#.___.__    .    #
##....#_..............#._..........    #
####.##_.____._#......#._...._====.==  #
#   .   .    . ####.###.___.__=.....=  #
#   .   .    .   ==.=__.___._ =.....=  #
#   .   .   ======..=_......_ ===.===  #
#   .   .   =...==..=_.>...._====.=    #
#   .  ....................._=....=    #
#   .       =...==..=_.................#
#  ________ ======.==___.____=....=    #
#  _......_====   .   ##.##  ====.=    #
#  _......_=..=   ........#      .     #
#  _..........=  ..   #...#===== .     #
#  _......_=........  #.<.#=.........  #
#  _.______=..=  ...  #........=       #
#   .      ==.= =.=.= #.###=...=       #
#   .========.===...===.== ===.=       #
#    =....==...==........= ___.___     #
#  .................==...= _....._     #
#    =======.......===...= _.......... #
#          =====     ===== _______     #
########################################
