########################################
#     ########     ______      =====.  #
#     #......# ..............  =...=.  #
#............#=====_...._     .=...=.  #
#     #...........=___.__     .==.==.  #
#     #......#=...=___.___  ##.##.##.  #
#     ##.#####=.........._  #......#.  #
#       ..........=_........#......#.  #
#       .     =====_....._  ####.###.  #
#       .  ######  ___.___     =.===.= #
#       .. #....#=====.=========.....= #
#       .. #...........==............= #
#====###..##....#=.>..........==.....= #
#=..=#....#######=.....==========.==== #
#=........#...............    ###.###  #
#====#....#____  ==.====   ............#
#    ######_.._____.___       #.....#  #
#  ######  _..................#.....#  #
#  #....#  _____......_       ####.##  #
#  #.................._       ====.=== #
#  #.####      ____.___#######=......= #
####.###        ###.####.....#=......= #
##.....#   ...............<..#=......= #
##.....#        #.....##.....#=......= #
##.....#        #.....####.#.#==.===.= #
##.....#   ...........# ##.#.   . __.__#
####.###        #.##### #..#.   . _..._#
#   .            .   ......#    . _..._#
#   .            .      ####    . _____#
########################################
