########################################
#              .    .                  #
#######        .    .                  #
##....#      __._ __._____      ____   #
##....#_______.._ _......_      _.._   #
##..>.......__.._._................_   #
##....#_........_._......_      __._   #
#######___.___.._._......_    . ##.##  #
#_____====.= ____.____.___    . #...#  #
#_..._=....=_____.__==.==     . #......#
#_.........=_......_=...=     . #...#  #
#_____=........................ #...#  #
# ............__.___=.=.=     . #####  #
##### =.====  ##.####. .    ##.###     #
##..###.#     #.....#. ..   #..........#
##......#...........#. ..   #....#     #
##..##.........###.##. ..   ###.##     #
######..#      ===.=== ..     =.===    #
#  .....#  =====.....===.=   .=...=    #
#    ##.#  =..==.....==.......=...=    #
#    __.__ =..==.........=   .==.==    #
#........_ =.........===.= ##.##.##    #
#    _.<._ =..=====.====.==#...........#
#  ......_ ==.= ###.##=...=#......#    #
#    _.___   .  #....#=...........#    #
#     .      ........#=====#......#    #
#     .      .  #......................#
#            .  ######                 #
#                                      #
########################################
