########################################
#         .                    .       #
# ####    .   ====             .       #
# #..#====.====..=   ______    .       #
# #..............=........_====.  #### #
# #.##=......=====.  _........=.  #..# #
#  .  =......=    .  _...._=..=......# #
#  ..........=    .  ______==.=.  ##.# #
#     ====.===  . .         #.#.###_.__#
#      ###.#### . .   ............#_.._#
#______#......#=.=.==     . #........._#
#_...._#......#=....=____ . #.....#__._#
#_............#=....=_.._ . ###.###  . #
#_...._#......#=........_=.====.=====. #
#___.__####.###===.==____=..==......=. #
#   .====__._____=.====  =..........=. #
#   .=..=_......_=....=  =..==......=. #
#____=........>.......=  ==.==.====.=  #
#_.._=.==_......_=....=. ##.##.  __._  #
#_.._ .  _____.__====.=. #...#.  _.._  #
#_.._ .  =====.   ###.#.##...#......_  #
#__._ .  =...=.   #..........#.  ____  #
#__._____=.<.=#####.....##.............#
#_......_=.......##.....######_______  #
#_...........=#.............  _....._  #
#______._=====#....................._  #
#      .      ##.#            _....._  #
#      .        .             _______  #
#      .        .                      #
########################################
