########################################
#                     =====            #
#                 ####=...=        ____#
#    ########     #..#=...======   _.._#
#    #....................==.........._#
#  .........#     #..#=........=   __._#
#    #.##.###     ####=.=.==.=.=    .. #
#     . _.______=====  . .  . ..    .. #
#     . _......_=...= ....  . ..    .  #
# ..................= ....  . ..    .  #
#_________._____=...= ...   . ..    .  #
#_.....___._    =...= . .   . ..    .  #
#_........._    ==.== . .   . ..  ==.==#
#___.____.._  ====.===.=.===###.##=...=#
#   .   __._.......==......=#.........=#
#   . ====.====................<.#=...=#
# ...........====.===......=#....#=====#
######=......====.==========##.###     #
##...#=......==....=        ##.#       #
##...........==....=________#..#_______#
######=.=======....=_......_#..#_....._#
#    __.__    ===.==_................._#
#    _..._     ##.##_.___.__#.##__.____#
#........_.........# .___.___. ###.##  #
#    _.___     #...# ._....._. #....#  #
#  ###.## .........# ._....._. #..>.#  #
#  #.............### ._______  #....#  #
#  #....#           ................#  #
#  ######                      ######  #
########################################
