########################################
#   .  ######    ____ #######          #
#   .  #....#    _.._ #.....#________  #
# __.__#........._.._ #.....#_......_  #
# _..._#....#    _.._ #............._  #
# _.........#   ._.._ #.....#_......_  #
# _..._###.##   .__._ ###.###________  #
# ___._  #.#####.##.##___.____________ #
#    .   #...##......#_......__......_ #
#    . ......##......#_.............._ #
#        #.......<.......>...__......_ #
#  ..........##......#_......___._____ #
#____    ###.#####.###____.___##.#=====#
#_.._=======. ====.==   ==.== #..#=...=#
#_.._=.....=. =.............= #.......=#
#_..................=.  =...= #.##=...=#
#_.._=.=.===  ==.====.  ==.==  .  =====#
#__._ . . ====##.##__.___ .    .       #
#==.= . . =..=#...#_...._ .    ..      #
#=..= . . =............._ .    ..      #
#=..= . . =..=#...#__.___..    .. #### #
#==.= . . ====#.###  .   ..    .. #..# #
#  .  .  ====##.##   .   ..  __.._#..# #
#  .  .  =..=#...#   . ##..##_.......# #
#  .  .  =.......#     #....#_..._#..# #
#  .  .  =..=#.........#....#_..._#### #
#  .  .  ====###.#     #....#_..._     #
#  .            .      ######_____     #
#  .            .                      #
########################################
