########################################
#         =====    ____________        #
#    .........=    _..__.............. #
##########=...........__......_        #
##...##..#=.===    _.._____.___        #
##.......# .       __._____._.         #
##...###.# .       ##.#_...._.   .     #
##.###==.==  ..............._.   . #####
# . ......=    #####..#_...._. ==.=#..##
# .   =...........##..#______. =......##
#   ......... .#......# .    . =..=#####
#     =====   .######.# .  ==.==..=.   #
#             .     #.##.##=..===.=.   #
#           ==.=====#.....#=..===.=.   #
#      _____=......=#.........==..=.   #
# ........._=......=#.>...#=......=.   #
#   .  _.......<..........#=.===.==.   #
#   .  _.___=......=##.##.# . __._=.== #
#   .   .   ===.====  .==.==. _.._=..= #
# . .   .    ==.==    .=...=  _......= #
# . .   .    =......  .=...=  _.._=.== #
#=.=.=  . .......=    .=...= ..... .   #
#=........   ==.==    .=.=== .     .   #
#=...=     ====.=== ====.====.=====.   #
#=................= =......==.....=.   #
#=...=     =......= =.............=.   #
#=====  .............................  #
#          ========                    #
#                                      #
########################################
