########################################
#   =====   .             ##########   #
#   =...=   .    ======   #....##..... #
#   =...=   .  .......=   #....##..#   #
#   ==.==   . . .=....=  .#....##..#   #
#   __.___  . . .===.==  .###.####.#   #
#   _...._==.=.=.===.==  .  #.####.#   #
# ......._=......==...===.==#......... #
#   _.................==...=#......#   #
#   _...._==.======........=####.###   #
#   ____._  .     ==.===========.===   #
#    ===.===.    ___.___####=..........#
#    =.....=.  ........_#..#=...<..=   #
# .........=.    _....._#........>.=   #
#    =.....=.    _.........#=......=   #
#..........=.    ___.___#..#=.===.==   #
#    =.===.=.______ .   #### .===.==   #
#     .###.##_...._ .        .=....=   #
#     .#....#_...._ .    _____=........#
#     .#....#_...._ . .  _..._=....=   #
#     .######___.__ . .  _.............#
#     . ########.#    .  _..._==.===   #
#     . #..##....#####.# _.___  .      #
#     . #..............###.##   .      #
#     . #.......###.........#   .      #
#     . ####      #.#####...#   .      #
#     .            .    #.#.#   .      #
#                  .     . .           #
#                  .     . .           #
########################################
