########################################
#  ______      .          .            #
#  _...._      .          .            #
#  _...._      .         =.============#
# ._.......    .     ...........==....=#
# .___.__    ##.##       =..<...==....=#
##.###.#   ......#       =............=#
##.....#     #...# .............==....=#
##.....# ........#  .    ====.=========#
##......... .#...#  .   =====.======== #
####.###    .##.## #.###=.....==.....= #
#  _.____===.==.===#.................= #
#  _...._=...==...=#...#=====.======== #
#  _...................#  ###.##====   #
#  ______==========##.##  #....#=..... #
#          ====   ===.= . #........=   #
#          =..=   =...= . ###.##====   #
# ======== =..=.......= .  ==.=_______ #
# =......= ==.=   =...=_.__=..=_....._ #
# =...>..=###.### =.===_.._=........._ #
# =.............###.#  _......=___.___ #
# =......=#.........#  __._=..====.=== #
# ===.====#.....##.....  . =.===.....= #
# ###.### ########.##    .##.# =.....= #
# #.....#     ____.___   .#............#
# #.....#   ........._   .#..#         #
# #.....#     _......_   .#..#         #
# #.............._____    #..#         #
# #######                 ####         #
########################################
