XXXXXXXXXXXXXXXXXXXXXXXXXXXXXXXXXXXXXXXXXXXXXXXXXXXXXXXXXXXXXXXXXXXXXXXXXXXXXXXX
X                                                                              X
X                                                                              X
X                                                                              X
X                                                                              X
X               =====_______########                                           X
X               =..................#                                           X
X               =..................#                                           X
X               =....._____..##+++##                                           X
X               =====        __...__                                           X
X                            _....._     .                                     X
X                     ====== _....._   . .                                     X
X                     =....= __...__   . .                                     X
X                     =....=   ....    . .  ####                               X
X                    .=....=    . .    . .  #..#......                         X
X        =======     .=....=    .      . .  #..#                               X
X        =.....=     .==...= (((((((_______ #+++                               X
X        =.....=     .  ...(((((((((......_.....                 .......       X
X        ==...==     .  (((((.((((((..<..._.@@@.                 .@@@@@.       X
X     ((((=...====##### (((((.((((((......_.@@@.                 .@@@@@.   .   X
X     ((((.......=#...# (((((.((((((__...__.@@@.                 .......   .   X
X     ((((........+...#               ......@@@.            _____==...=    .   X
X     ((((........+...#          .    .@@@......            _...........====== X
X         ===...=.+...#          .    .@@@.....             _................= X
X     ........... #####          . ....@@@..(((             ____..====.......= X
X     .@@@..@@@@.              . ......@@@..((( .                      ==...== X
X     .@@@..@@@@.......        . .    .....(((( .               =======__...__ X
X     .@@@..@@@@.             ______#####  (((( .         ____ .............._ X
X     ......@@@@.       ......_.........#===...====       _.._..............._ X
X          ......             _...................=...... _.._ ..=...=..______ X
X  ========  ...##            _...................=       _.._   (((((     .   X
X  =......=  #...#            ...___#...........===....   _...   (((((     .   X
X  =......=  #...+.          ((((   ...##===...((((.@@.====... ..(((((         X
X  =......=..#...+...........(((( ==...==  ....(((..@@.......=   (((((......   X
X  =......=  #...+.          (((( =.....=  .@@.(((..@@.......=   (((((         X
X  ===...==  ...##    .......(((( =.....=  .@@.(((..@@.......=   (((((         X
X    =...==__..._            (((( =.....=  ....  . ....====...                 X
X    =....=_...._       ..........=.....=   .    .#+++.  .......               X
X    =.........._  .              =======   .    .#..#.  .@@@@@....            X
X  ..=.........._  .          #######.      .    .#..#.  .@@@@@......          X
X    =......_____  .          #.....#.     ...   .####.  .@@@@@........        X
X    ======  .     .          #.....#.   ...........#### .@@@@@.               X
X            .     . ======   ##+++##.   .@@@@@..@@.+..# .......               X
X           ..............=    (...( .   .@@>@@..@@.+..#    ....               X
X          _....@@@@......= ...(((((.=== .@@@@@.....+###    .@@.               X
X    _______....@@@@..=====    (((((...= .......  .         .@@.               X
X    _...............          (((((.....(((( .   .         .@@.               X
X    _........_    .           (((((=....(((( .   .         ....               X
X    ...__..___    .                =....(((( .                                X
X   _...           .                ====((((( .                                X
X   _.._.....      .                    (((((                                  X
X   _.._           .                                                           X
X   ..._                                                                       X
X  ((((                                                                        X
X  ((((                                                                        X
X  ((((                                                                        X
X  ((((                                                                        X
X  ((((                                                                        X
X  ((((                                                                        X
XXXXXXXXXXXXXXXXXXXXXXXXXXXXXXXXXXXXXXXXXXXXXXXXXXXXXXXXXXXXXXXXXXXXXXXXXXXXXXXX
