000000
000000
000000
000000
000000
000000
000000
000000
000000
000000
000000
000000
000000
000000
000000
000000
000000
000000
000000
000000
000000
000000
000000
000000
000000
000000
000000
000000
000000
000000
000000
000000
000000
000000
000000
000000
000000
000000
000000
000000
000000
000000
000000
000000
000000
000000
000000
000000
000000
000000
000000
000000
000000
000000
000000
000000
000000
000000
000000
000000
000000
000000
000000
000000
000000
000000
000000
000000
000000
000000
000000
000000
000000
000000
000000
000000
000000
000000
000000
000000
000000
000000
000000
000000
000000
000000
010101
000000
000000
000000
000000
000000
010101
000000
000000
000000
000000
000000
000000
000000
000000
000000
010101
010101
000000
000000
000000
000000
101010
000000
000000
000000
000000
000000
000000
000000
000000
000000
000000
111111
010101
000000
000000
000000
010101
101010
000000
010101
000000
000000
000000
000000
000000
000000
000000
101010
101010
000000
000000
000000
010101
101010
010101
010101
000000
000000
000000
000000
000000
000000
000000
101010
111111
101010
000000
000000
010101
111111
101010
010101
000000
000000
000000
000000
000000
000000
000000
010101
111111
111111
101010
010101
101010
111111
101010
010101
000000
000000
000000
000000
000000
000000
000000
000000
111111
111111
111111
111111
111111
111111
101010
010101
000000
000000
000000
010101
000000
000000
000000
010101
101010
111111
111111
111111
111111
111111
101010
010101
000000
000000
000000
000000
010101
000000
000000
010101
101010
101010
101010
101010
101010
101010
101010
101010
000000
000000
000000
000000
010101
101010
101010
111111
111111
111111
111111
101010
111111
111111
111111
111111
000000
000000
000000
000000
000000
111111
101010
111111
111111
111111
111111
101010
111111
111111
111111
111111
000000
000000
000000
000000
000000
000000
000000
000000
000000
000000
000000
000000
000000
000000
000000
000000
000000
000000
000000
000000
000000
000000
000000
000000
000000
000000
000000
000000
000000
000000
000000
000000
000000
000000
000000
000000
000000
000000
000000
000000
000000
000000
000000
000000
000000
000000
000000
000000
000000
000000
000000
000000
000000
000000
000000
000000
000000
000000
000000
000000
010101
000000
000000
000000
000000
000000
000000
000000
000000
000000
000000
000000
000000
000000
000000
101010
000000
000000
000000
000000
000000
000000
000000
000000
000000
000000
000000
000000
000000
000000
101010
010101
000000
000000
000000
000000
000000
000000
000000
000000
010101
000000
000000
000000
000000
101010
101010
000000
000000
000000
000000
000000
000000
010101
000000
010101
101010
000000
000000
000000
101010
111111
010101
000000
000000
000000
000000
000000
010101
010101
101010
111111
010101
000000
000000
101010
111111
101010
000000
000000
000000
000000
000000
000000
010101
010101
101010
101010
010101
010101
010101
111111
111111
000000
000000
000000
000000
000000
000000
000000
010101
010101
101010
101010
010101
010101
101010
111111
101010
000000
000000
000000
000000
000000
000000
000000
010101
010101
101010
111111
101010
111111
111111
111111
010101
000000
000000
000000
000000
000000
000000
000000
010101
010101
101010
111111
111111
111111
111111
101010
000000
000000
000000
010101
010101
000000
000000
000000
010101
101010
111111
101010
101010
101010
101010
101010
010101
010101
111111
101010
000000
000000
000000
000000
111111
111111
111111
101010
101010
111111
111111
111111
101010
111111
101010
000000
000000
000000
000000
000000
101010
111011
111111
111111
111111
101010
111111
111111
101010
111111
010101
000000
000000
000000
000000
000000
000000
000000
000000
000000
000000
101010
111111
111111
111111
111111
101010
111111
111111
111111
111111
111011
000000
000000
000000
000000
000000
010101
111111
111111
111111
111111
101010
111011
101011
101011
111011
101011
000000
000000
000000
000000
010101
101010
101010
111111
111111
111111
101010
101010
101011
010110
101011
101011
000000
000000
000000
000000
000000
101010
101010
101010
101010
111111
101010
010101
010010
010010
010110
010110
000000
000000
000000
000000
010101
111111
111111
111111
111111
010101
010101
010101
100110
100010
010010
100111
000000
000000
000000
000000
111111
111111
111111
101010
111011
100110
010101
100110
111011
111011
100010
111011
000000
000000
000000
010101
111111
111111
101010
111011
101011
010101
010101
111011
111011
111011
110111
111011
000000
000000
000000
010101
111111
111111
101010
101010
010001
010010
111011
111011
111011
111011
111011
111011
000000
000000
000000
000000
101010
111011
101011
010110
100110
111011
111011
111011
111011
100110
100111
010110
000000
000000
000000
000000
000000
010101
010110
010110
111011
111011
111011
100110
000000
000000
000001
000001
000000
000000
000000
000000
000000
000000
000001
000001
000000
010110
100111
000000
000000
000000
000000
000000
000000
000000
000000
000000
000000
000000
000001
000000
000000
000000
010001
000000
000000
000000
000000
000000
000000
000000
000000
000000
000000
000000
000000
000000
000000
000000
000000
000000
000000
000000
000000
000000
000000
000000
000000
000000
000000
000000
000000
000000
000000
000000
000000
000000
000000
000000
000000
000000
000000
000000
000000
000000
000000
000000
000000
000000
000000
000000
000000
000000
000000
000000
000000
000000
000000
000000
000000
000000
000000
000000
000000
000000
000000
000000
000000
000000
000000
000000
000000
000000
100110
101011
111111
111111
111111
101010
111111
111111
111111
101010
000000
000000
000000
000000
000000
000000
010110
100111
101011
100110
111111
101010
111111
111111
111111
010101
000000
000000
000000
000000
000000
000000
010010
010011
010111
010010
101010
101010
111111
111111
101010
010101
000000
010101
000000
000000
000000
000000
010011
010010
010010
010010
010101
101010
111111
111111
101010
101010
101010
101010
000000
000000
000000
000000
111011
110111
100110
111011
010001
010101
101010
101010
101010
111111
111111
000000
000000
000000
000000
000000
111011
111011
111011
111011
100110
010001
010101
101010
111111
111111
111111
101010
000000
000000
000000
000000
111011
111011
111011
111011
111011
100110
010001
010110
101010
101010
111111
111010
000000
000000
000000
000000
111011
111011
111011
111011
111011
111011
100111
010010
010101
010110
101010
101010
000000
000000
000000
000000
100111
100111
100110
111011
111011
111011
111011
010010
010010
010110
010101
000000
000000
000000
000000
000000
000001
000001
000000
010010
111011
111011
111011
100111
010010
000001
000000
000000
000000
000000
000000
000000
000000
000000
000000
000000
100110
111011
000001
000000
010110
000001
000000
000000
000000
000000
000000
000000
000000
000000
000000
000000
000001
010001
000000
000000
000001
000000
000000
000000
000000
000000
000000
000000
000000
000000
000000
000000
000000
000001
000000
000000
000000
000000
000000
000000
000000
000000
000000
000000
000000
000000
000000
000000
000000
000000
000000
000000
000000
000000
000000
000000
000000
000000
000000
000000
000000
000000
000000
000000
000000
000000
000000
000000
000000
000000
000000
000000
000000
000000
000000
000000
000000
000000
000000
000000
000000
000000
000000
000000
000000
000000
000000
000000
000000
000000
000000
000000
000000
000000
000000
000000
000000
000000
000000
000000
000000
000000
000000
000100
000100
000100
000100
000100
000000
000000
000000
000000
000000
000000
000000
000000
000100
000100
000100
000100
000100
000100
000100
000100
000000
000000
000000
000000
000000
000000
000100
000100
000100
000100
010100
011000
011000
011001
011001
011000
000000
000000
000000
000000
000000
000100
000100
000100
000100
000100
000100
000100
000100
011000
011000
011001
000000
000000
000000
000100
000100
000100
000100
000100
000100
000100
010100
011000
011000
011000
011000
011000
000000
000000
000100
000100
000100
000100
000100
000100
011000
011000
101001
101001
101110
111110
111110
101101
000000
000000
000100
000100
000100
000100
000100
011000
101001
101001
101001
101001
101001
101101
111110
111110
000000
000100
000100
000100
000100
000100
011001
101001
011000
011000
101001
101001
111110
111110
111110
111110
000100
000000
000100
000100
000100
011001
011000
011000
101001
101001
111110
111110
111111
111111
111111
111111
000000
000000
000100
000100
011001
011000
011000
101001
111110
111110
111110
111110
111110
111111
111111
111111
000000
000100
000100
011000
000100
011000
011001
101110
111110
111101
111110
111111
111111
111111
111111
111111
000000
000100
000100
000100
000100
011000
101101
101101
101101
111110
111111
111111
111111
111111
111111
111111
000100
000100
000100
000100
011000
101001
101101
101001
111110
111111
111111
111111
111111
111111
111111
111111
000100
000100
000100
000100
011000
101001
101001
111101
111111
111111
111111
111111
111111
111111
111111
111111
000100
000100
000100
000100
101001
101001
101001
111110
111111
111111
111111
111111
111111
111111
111111
111111
000100
000100
000100
010100
101001
011000
101001
111110
111110
111111
111111
111111
111111
111111
111111
111111
000100
000100
000100
000100
000100
000100
000000
000000
000100
000000
000000
000000
000000
000000
000000
000000
000100
000100
000100
000100
000100
000100
000100
000000
000000
000100
000000
000000
000000
000000
000000
000000
011000
010100
000100
000100
000100
011000
000100
000100
000100
000100
000100
000000
000000
000000
000000
000000
101001
101001
011000
011000
000100
000100
011000
000100
000100
000100
000100
000100
000000
000000
000000
000000
011000
011001
101001
101001
011000
011000
011000
011001
000100
000100
000100
000100
000000
000000
000000
000000
101001
101001
101001
101001
101101
011001
011000
011000
011001
000100
000100
000100
000100
000000
000000
000000
111110
111110
111101
101001
101101
101110
101001
011000
101001
011000
000100
000100
000100
000100
000000
000000
111110
111110
111111
111110
101001
111110
101101
011000
011000
011001
000100
000100
000100
000100
000000
000000
111111
111110
111111
111111
111110
111101
111110
101001
011000
101001
011000
000100
000100
000100
000000
000000
111111
111111
111111
111111
111111
111110
111110
111110
101001
101001
011000
000100
000100
000100
000100
000000
111111
111111
111111
111111
111111
111111
111110
111110
101001
101001
101001
000100
000100
000100
000100
000000
111111
111111
111111
111111
111111
111111
111110
111111
111101
101001
101001
011000
000100
010100
000100
000000
111111
111111
111111
111111
111111
111111
111111
111111
111110
101001
101101
011000
011000
011000
000100
000000
111111
111111
111111
111111
111111
111111
111111
111111
111110
111101
101101
011000
011000
011000
000100
000100
111111
111111
111111
111111
111111
111111
111111
111111
111110
111110
101001
011000
011001
010100
000100
000100
111111
111111
111111
111111
111111
111111
111111
111111
111110
111110
101001
011000
101001
010100
000100
000100
000100
000100
000100
011000
011001
011000
101101
111110
111110
111111
111111
111111
111111
111111
111111
111111
000100
000100
000100
011001
011000
011000
111110
111110
111110
111111
111111
111111
111111
111111
111111
111111
000100
000100
000100
011001
011000
011000
111110
111101
111110
111111
111111
111111
111111
111111
111111
111111
000100
000100
000100
011001
000100
011000
111110
101001
111110
111111
111111
111111
111111
111111
111111
111111
000100
000100
000100
011000
000100
011000
101110
101001
111110
111111
111111
111111
111111
111111
111111
111111
000100
000100
000100
011000
000100
011000
101001
101001
101101
111111
111110
111111
111111
111111
111111
111111
000100
000000
000100
010100
000100
010100
101001
101001
101001
111110
111110
111111
111111
111111
111111
111111
000000
000000
000100
000100
000100
000100
011000
101001
011000
101101
111110
111110
111111
111111
111111
111111
000000
000000
000100
000100
000100
000100
011000
101001
011000
101001
111110
111101
111110
111110
111111
111110
000000
000000
000000
000100
000100
000100
000100
011001
011000
011000
101001
111110
101001
101101
111110
111110
000000
000000
000000
000100
000100
000100
000100
000100
011001
011000
011000
101001
101110
101001
101001
101001
000000
000000
000000
000000
000100
000100
000100
000100
011000
011001
000100
011000
011001
101001
101001
011000
000000
000000
000000
000000
000100
000100
000100
000100
000100
011000
011000
000100
000100
011000
101001
101001
000000
000000
000000
000000
000000
000100
000100
000100
000100
000100
010100
010100
000100
000100
000100
010100
000000
000000
000000
000000
000000
000000
000100
000100
000000
000100
000100
000100
010100
000100
000100
000100
000000
000000
000000
000000
000000
000000
000000
000100
000100
000000
000100
000100
000100
000100
000100
000100
111111
111111
111111
111111
111111
111111
111111
111111
111110
111110
101001
011000
101001
000100
000100
000100
111111
111111
111111
111111
111111
111111
111111
111111
111111
111110
101001
101001
011001
000100
000100
000100
111111
111111
111111
111111
111111
111111
111111
111111
111111
101101
101001
101001
011000
000100
000100
000100
111111
111111
111111
111111
111111
111111
111111
111111
111110
101001
101101
011001
000100
000100
000100
000100
111111
111111
111111
111111
111111
111111
111111
111110
101101
111110
101001
011000
000100
000100
000100
000100
111111
111111
111111
111111
111111
111111
111110
111101
111110
101110
011000
000100
000100
010100
000100
000000
111111
111111
111111
111111
111111
111110
111110
111110
101110
011001
011000
010100
011000
000100
000100
000000
111111
111111
111111
111111
111111
111111
111110
101001
011000
011000
011000
011001
000100
000100
000000
000000
111110
111110
111110
111110
111110
101101
101001
011000
011000
011001
011001
000100
000100
000000
000000
000100
111110
111110
111101
101001
101001
101001
101001
101001
101001
011000
000100
000100
000100
000100
000100
000000
101101
111110
111110
111110
101110
101001
101001
011000
010100
000100
000100
000100
000100
000100
000000
000000
011000
011000
011001
011001
011000
011000
010100
000100
000100
000100
000100
000100
000100
000000
000000
000000
011001
011000
011000
010100
000100
000100
000100
000100
000100
000100
000100
000100
000000
000000
000000
000000
011000
011001
011001
011001
011000
011000
010100
000100
000100
000100
000000
000000
000000
000000
000000
000000
000100
000100
000100
000100
000100
000100
000100
000100
000100
000000
000000
000000
000000
000000
000000
000000
000100
000100
000100
000100
000100
000100
000000
000000
000000
000000
000000
000000
000000
000000
000000
000000
101110
101110
000000
000000
000000
000000
000000
000000
000000
000000
000000
000000
000000
000000
000000
000000
101110
101110
101110
000000
000000
000000
000000
000000
000000
000000
000000
000000
000000
000000
000000
000000
000000
101110
101110
101110
101110
000000
000000
000000
000000
000000
000000
000000
000000
000000
000000
000000
000000
000000
101110
101010
101010
101110
000000
000000
000000
000000
000000
000000
000000
000000
000000
000000
000000
000000
101110
101010
101010
101010
101110
000000
000000
000000
000000
000000
000000
000000
000000
000000
000000
000000
000000
101110
101010
101010
101010
101110
101110
000000
000000
000000
000000
000000
000000
000000
000000
000000
000000
000000
101110
101010
101010
101010
101110
101110
000000
000000
000000
000000
000000
000000
000000
000000
000000
000000
000000
101110
101010
101010
101010
101010
101110
000000
000000
000000
101110
000000
000000
000000
000000
000000
000000
101110
101010
101010
111111
101010
101010
101110
101110
000000
000000
101110
000000
000000
000000
000000
000000
000000
101110
101010
101010
111111
101010
101010
101110
101110
101010
101010
000000
000000
000000
000000
000000
000000
000000
101110
101010
101010
111111
101010
101010
101010
101010
101010
000000
000000
000000
000000
000000
000000
000000
000000
101110
101010
101010
111111
111111
101010
101010
111111
000000
000000
000000
000000
000000
000000
000000
000000
101110
101110
101010
111111
111111
111111
111111
111111
000000
000000
000000
000000
000000
000000
000000
000000
000000
101110
101010
101010
111111
111111
111111
111111
000000
000000
000000
000000
000000
000000
000000
000000
000000
101010
101010
101010
111111
111111
111111
111111
101110
000000
000000
000000
000000
101110
000000
101110
101010
101010
111111
111111
111111
111111
111111
111111
000000
000000
000000
000000
000000
000000
000000
000000
000000
000000
000000
000000
000000
000000
101110
101110
000000
000000
000000
000000
000000
000000
000000
000000
000000
000000
000000
000000
101110
101110
101110
101110
000000
000000
000000
000000
000000
000000
000000
000000
000000
000000
000000
101110
101110
101010
101110
000000
000000
000000
000000
000000
000000
000000
000000
000000
000000
000000
101110
101010
101010
101110
101110
000000
101110
000000
000000
000000
000000
000000
000000
000000
101110
101110
101010
101010
101010
101110
000000
000000
000000
000000
000000
000000
000000
000000
000000
101110
101010
101010
101010
101010
101110
000000
000000
000000
101110
000000
000000
000000
000000
000000
101110
101010
101010
101010
101010
101110
000000
000000
000000
000000
101010
000000
000000
000000
000000
101110
101010
101010
101010
101010
101010
101110
000000
000000
000000
000000
101010
101110
000000
101110
101110
101010
101010
111111
101010
101010
101110
000000
000000
000000
000000
000000
101010
101010
101110
101110
101010
101010
111111
101010
101010
101110
000000
000000
000000
000000
000000
000000
111111
101010
101010
101010
111111
111111
101010
101010
101110
000000
000000
000000
000000
000000
000000
000000
111111
111111
101010
111111
111111
111111
101010
101110
101110
000000
000000
000000
000000
000000
000000
000000
111111
111111
111111
111111
111111
101010
101110
101110
000000
000000
000000
000000
000000
000000
000000
000000
111111
111111
111111
111111
101010
101010
101110
000000
000000
000000
000000
000000
000000
000000
000000
000000
111111
111111
111111
111111
101010
101010
101110
000000
101110
000000
000000
000000
000000
000000
000000
000000
111111
111111
111111
111111
111111
101010
101010
101110
000000
000000
000000
000000
000000
000000
000000
000000
000000
000000
000000
000000
000000
000000
000000
000000
101110
101010
101010
111111
111111
111111
111111
111111
000000
000000
000000
000000
000000
000000
000000
101110
000000
101110
101010
101010
111111
111111
111111
111111
000000
000000
000000
000000
000000
000000
000000
000000
000000
101110
101010
101010
111111
111111
111111
111111
000000
000000
000000
000000
000000
000000
000000
000000
101110
101110
101010
111111
111111
111111
111111
111111
000000
000000
000000
000000
000000
000000
000000
101110
101110
101010
111111
111111
111111
101010
111111
111111
000000
000000
000000
000000
000000
000000
000000
101110
101010
101010
111111
111111
101010
101010
101010
111111
000000
000000
000000
000000
000000
000000
101110
101010
101010
111111
101010
101010
101110
101110
101010
101010
000000
000000
000000
000000
000000
101110
101010
101010
111111
101010
101010
101110
101110
000000
101110
101010
000000
000000
000000
000000
101110
101010
101010
101010
101010
101010
101110
000000
000000
000000
000000
101010
000000
000000
000000
000000
101110
101010
101010
101010
101010
101110
000000
000000
000000
000000
000000
101110
000000
000000
000000
101110
101010
101010
101010
101010
101110
000000
000000
000000
000000
000000
000000
000000
000000
000000
101110
101010
101010
101010
101110
101110
000000
000000
000000
000000
000000
000000
000000
101110
000000
101110
101110
101010
101010
101110
000000
000000
000000
000000
000000
000000
000000
000000
000000
000000
000000
101110
101010
101110
101110
000000
000000
000000
000000
000000
000000
000000
000000
000000
000000
000000
101110
101110
101110
101110
000000
000000
000000
000000
000000
000000
000000
000000
000000
000000
000000
000000
101110
101110
000000
000000
000000
000000
000000
000000
000000
000000
000000
000000
000000
000000
000000
000000
111111
111111
111111
111111
111111
111111
101010
101010
101110
000000
101110
000000
000000
000000
000000
101110
111111
111111
111111
111111
101010
101010
101010
000000
000000
000000
000000
000000
000000
000000
000000
000000
111111
111111
111111
111111
101010
101010
101110
000000
000000
000000
000000
000000
000000
000000
000000
000000
111111
111111
111111
111111
111111
101010
101110
101110
000000
000000
000000
000000
000000
000000
000000
000000
111111
101010
101010
111111
111111
101010
101010
101110
000000
000000
000000
000000
000000
000000
000000
000000
101010
101010
101010
101010
101010
111111
101010
101010
101110
000000
000000
000000
000000
000000
000000
000000
101010
101010
101110
101110
101010
101010
111111
101010
101010
101110
000000
000000
000000
000000
000000
000000
101110
000000
000000
101110
101110
101010
101010
111111
101010
101010
101110
000000
000000
000000
000000
000000
000000
101110
000000
000000
000000
101110
101010
101010
101010
101010
101110
000000
000000
000000
000000
000000
000000
000000
000000
000000
000000
000000
101110
101110
101010
101010
101010
101110
000000
000000
000000
000000
000000
000000
000000
000000
000000
000000
000000
101110
101110
101010
101010
101010
101110
000000
000000
000000
000000
000000
000000
000000
000000
000000
000000
000000
000000
101110
101010
101010
101010
101110
000000
000000
000000
000000
000000
000000
000000
000000
000000
000000
000000
000000
101110
101010
101010
101110
000000
000000
000000
000000
000000
000000
000000
000000
000000
000000
000000
000000
000000
101110
101110
101110
101110
000000
000000
000000
000000
000000
000000
000000
000000
000000
000000
000000
000000
000000
000000
101110
101110
101110
000000
000000
000000
000000
000000
000000
000000
000000
000000
000000
000000
000000
000000
000000
101110
101110
