Design Route Status
                                               :      # nets :
   ------------------------------------------- : ----------- :
   # of logical nets.......................... :        3665 :
       # of nets not needing routing.......... :        2264 :
           # of internally routed nets........ :        2264 :
       # of routable nets..................... :        1401 :
           # of fully routed nets............. :        1401 :
       # of nets with routing errors.......... :           0 :
   ------------------------------------------- : ----------- :

